EESchema Schematic File Version 4
EELAYER 30 0
EELAYER END
$Descr A4 11693 8268
encoding utf-8
Sheet 3 11
Title ""
Date ""
Rev ""
Comp ""
Comment1 ""
Comment2 ""
Comment3 ""
Comment4 ""
$EndDescr
$Comp
L Connector:6P6C J?
U 1 1 61D992D9
P 7450 3350
AR Path="/61D992D9" Ref="J?"  Part="1" 
AR Path="/61D86EDF/61D992D9" Ref="J?"  Part="1" 
AR Path="/61D8E19D/61D992D9" Ref="J8"  Part="1" 
F 0 "J8" H 7120 3354 50  0000 R CNN
F 1 "MOTOR2" H 7120 3445 50  0000 R CNN
F 2 "Mylibs:RJ12_DS1133-S60BP" V 7450 3375 50  0001 C CNN
F 3 "~" V 7450 3375 50  0001 C CNN
	1    7450 3350
	-1   0    0    1   
$EndComp
$Comp
L byDave:BD63573NUV U?
U 1 1 61D962ED
P 5050 3350
AR Path="/61D962ED" Ref="U?"  Part="1" 
AR Path="/61D86EDF/61D962ED" Ref="U?"  Part="1" 
AR Path="/61D8E19D/61D962ED" Ref="U20"  Part="1" 
F 0 "U20" H 5300 2850 50  0000 L CNN
F 1 "BD63573NUV" H 4350 2850 50  0000 L CNN
F 2 "Package_SON:VSON-10-1EP_3x3mm_P0.5mm_EP1.65x2.4mm_ThermalVias" H 4950 3350 50  0001 C CNN
F 3 "" H 4950 3350 50  0001 C CNN
	1    5050 3350
	1    0    0    -1  
$EndComp
Wire Wire Line
	7050 3350 6550 3350
Wire Wire Line
	7050 3450 6700 3450
Wire Wire Line
	6650 3550 7050 3550
Wire Wire Line
	4950 3850 5050 3850
Connection ~ 5150 3850
Connection ~ 5050 3850
Wire Wire Line
	5050 3850 5150 3850
Text HLabel 5100 1400 1    50   Input ~ 0
VM
Text HLabel 5000 2300 1    50   Input ~ 0
+3V3
Wire Wire Line
	5000 2300 5000 2600
Text HLabel 2850 4950 0    50   Input ~ 0
GND
Wire Wire Line
	6550 3350 6550 4000
Wire Wire Line
	5150 3850 5150 4000
Connection ~ 5150 4000
Wire Wire Line
	5150 4000 5650 4000
Text HLabel 2850 4350 0    50   Input ~ 0
MOTOR2_ENCO_A
Text HLabel 2850 4750 0    50   Input ~ 0
MOTOR2_ENCO_B
Text HLabel 3400 3400 0    50   Input ~ 0
MOTOR2_PWM
Text HLabel 3400 3300 0    50   Input ~ 0
MOTOR2_DIR
$Comp
L Device:R R?
U 1 1 61D96310
P 5450 4350
AR Path="/61D86EDF/61D96310" Ref="R?"  Part="1" 
AR Path="/61D8E19D/61D96310" Ref="R42"  Part="1" 
F 0 "R42" V 5243 4350 50  0000 C CNN
F 1 "4K7" V 5334 4350 50  0000 C CNN
F 2 "Resistor_SMD:R_0603_1608Metric_Pad0.98x0.95mm_HandSolder" V 5380 4350 50  0001 C CNN
F 3 "~" H 5450 4350 50  0001 C CNN
	1    5450 4350
	0    1    1    0   
$EndComp
$Comp
L Device:C C?
U 1 1 61D96316
P 5250 4500
AR Path="/61D86EDF/61D96316" Ref="C?"  Part="1" 
AR Path="/61D8E19D/61D96316" Ref="C66"  Part="1" 
F 0 "C66" H 5365 4546 50  0000 L CNN
F 1 "100p" H 5365 4455 50  0000 L CNN
F 2 "Capacitor_SMD:C_0603_1608Metric" H 5288 4350 50  0001 C CNN
F 3 "~" H 5250 4500 50  0001 C CNN
	1    5250 4500
	1    0    0    -1  
$EndComp
$Comp
L Device:R R?
U 1 1 61D9631C
P 6000 4650
AR Path="/61D86EDF/61D9631C" Ref="R?"  Part="1" 
AR Path="/61D8E19D/61D9631C" Ref="R43"  Part="1" 
F 0 "R43" V 5793 4650 50  0000 C CNN
F 1 "4K7" V 5884 4650 50  0000 C CNN
F 2 "Resistor_SMD:R_0603_1608Metric_Pad0.98x0.95mm_HandSolder" V 5930 4650 50  0001 C CNN
F 3 "~" H 6000 4650 50  0001 C CNN
	1    6000 4650
	0    1    1    0   
$EndComp
$Comp
L Device:C C?
U 1 1 61D96322
P 5800 4800
AR Path="/61D86EDF/61D96322" Ref="C?"  Part="1" 
AR Path="/61D8E19D/61D96322" Ref="C67"  Part="1" 
F 0 "C67" H 5915 4846 50  0000 L CNN
F 1 "100p" H 5915 4755 50  0000 L CNN
F 2 "Capacitor_SMD:C_0603_1608Metric" H 5838 4650 50  0001 C CNN
F 3 "~" H 5800 4800 50  0001 C CNN
	1    5800 4800
	1    0    0    -1  
$EndComp
Wire Wire Line
	4800 4000 5150 4000
Wire Wire Line
	5800 4650 5850 4650
Wire Wire Line
	5300 4350 5250 4350
Connection ~ 5250 4350
Wire Wire Line
	5250 4350 4350 4350
Wire Wire Line
	5800 4650 5400 4650
Wire Wire Line
	5400 4650 5400 4750
Connection ~ 5800 4650
Wire Wire Line
	6650 3550 6650 4350
Wire Wire Line
	6650 4350 5600 4350
Wire Wire Line
	6150 4650 6750 4650
Wire Wire Line
	6750 4650 6750 3650
Wire Wire Line
	6750 3650 7050 3650
$Comp
L 74xGxx:SN74LVC1G14DBV U?
U 1 1 61D96335
P 4150 4350
AR Path="/61D86EDF/61D96335" Ref="U?"  Part="1" 
AR Path="/61D8E19D/61D96335" Ref="U19"  Part="1" 
F 0 "U19" H 3906 4396 50  0000 R CNN
F 1 "74HC2G14" H 3906 4305 50  0000 R CNN
F 2 "Package_TO_SOT_SMD:SOT-23-5" H 4150 4100 50  0001 C CNN
F 3 "http://www.ti.com/lit/ds/symlink/sn74lvc1g14.pdf" H 4150 4350 50  0001 C CNN
	1    4150 4350
	-1   0    0    -1  
$EndComp
$Comp
L 74xGxx:SN74LVC1G14DBV U?
U 1 1 61D9633B
P 3800 4750
AR Path="/61D86EDF/61D9633B" Ref="U?"  Part="1" 
AR Path="/61D8E19D/61D9633B" Ref="U18"  Part="1" 
F 0 "U18" H 3556 4796 50  0000 R CNN
F 1 "74HC2G14" H 3556 4705 50  0000 R CNN
F 2 "Package_TO_SOT_SMD:SOT-23-5" H 3800 4500 50  0001 C CNN
F 3 "http://www.ti.com/lit/ds/symlink/sn74lvc1g14.pdf" H 3800 4750 50  0001 C CNN
	1    3800 4750
	-1   0    0    -1  
$EndComp
Wire Wire Line
	4000 4750 5400 4750
Wire Wire Line
	4800 4950 4800 4000
Connection ~ 4800 4950
Connection ~ 5250 4950
Wire Wire Line
	5250 4650 5250 4950
Wire Wire Line
	5800 4950 5250 4950
Wire Wire Line
	5250 4950 4800 4950
Wire Wire Line
	3800 4950 4150 4950
Wire Wire Line
	4150 4550 4150 4950
Connection ~ 4150 4950
Wire Wire Line
	4150 4950 4800 4950
Wire Wire Line
	2850 4350 3850 4350
Wire Wire Line
	3500 4750 2850 4750
$Comp
L Device:C C?
U 1 1 61D9634E
P 3950 4000
AR Path="/61D86EDF/61D9634E" Ref="C?"  Part="1" 
AR Path="/61D8E19D/61D9634E" Ref="C60"  Part="1" 
F 0 "C60" V 3850 3650 50  0000 C CNN
F 1 "100n" V 3950 3650 50  0000 C CNN
F 2 "Capacitor_SMD:C_0603_1608Metric" H 3988 3850 50  0001 C CNN
F 3 "~" H 3950 4000 50  0001 C CNN
	1    3950 4000
	0    1    1    0   
$EndComp
$Comp
L Device:C C?
U 1 1 61D96354
P 3950 3750
AR Path="/61D86EDF/61D96354" Ref="C?"  Part="1" 
AR Path="/61D8E19D/61D96354" Ref="C59"  Part="1" 
F 0 "C59" V 3800 3400 50  0000 C CNN
F 1 "100n" V 3900 3400 50  0000 C CNN
F 2 "Capacitor_SMD:C_0603_1608Metric" H 3988 3600 50  0001 C CNN
F 3 "~" H 3950 3750 50  0001 C CNN
	1    3950 3750
	0    1    1    0   
$EndComp
Wire Wire Line
	4150 4150 3800 4150
Wire Wire Line
	3800 4150 3800 4000
Connection ~ 3800 4150
Wire Wire Line
	3800 4550 3800 4150
Wire Wire Line
	3800 2600 3800 3500
Connection ~ 5000 2600
Wire Wire Line
	5000 2600 5000 2850
Connection ~ 3800 3750
Wire Wire Line
	2850 4950 3800 4950
Connection ~ 3800 4950
Connection ~ 3800 4000
Wire Wire Line
	4100 3750 4100 4000
Wire Wire Line
	4100 4000 4300 4000
Connection ~ 4100 4000
Connection ~ 4800 4000
$Comp
L Device:C C?
U 1 1 61D96369
P 4000 2750
AR Path="/61D86EDF/61D96369" Ref="C?"  Part="1" 
AR Path="/61D8E19D/61D96369" Ref="C61"  Part="1" 
F 0 "C61" V 4000 2350 50  0000 C CNN
F 1 "100n" V 4100 2350 50  0000 C CNN
F 2 "Capacitor_SMD:C_0603_1608Metric" H 4038 2600 50  0001 C CNN
F 3 "~" H 4000 2750 50  0001 C CNN
	1    4000 2750
	-1   0    0    1   
$EndComp
Connection ~ 4000 2600
Wire Wire Line
	4000 2600 3800 2600
$Comp
L Device:C C?
U 1 1 61D96371
P 4250 2750
AR Path="/61D86EDF/61D96371" Ref="C?"  Part="1" 
AR Path="/61D8E19D/61D96371" Ref="C62"  Part="1" 
F 0 "C62" V 3998 2750 50  0000 C CNN
F 1 "10u" V 4089 2750 50  0000 C CNN
F 2 "Capacitor_SMD:C_0805_2012Metric" H 4288 2600 50  0001 C CNN
F 3 "~" H 4250 2750 50  0001 C CNN
	1    4250 2750
	-1   0    0    1   
$EndComp
Connection ~ 4250 2600
Wire Wire Line
	4250 2600 4000 2600
$Comp
L Device:C C?
U 1 1 61D96379
P 5250 2400
AR Path="/61D86EDF/61D96379" Ref="C?"  Part="1" 
AR Path="/61D8E19D/61D96379" Ref="C64"  Part="1" 
F 0 "C64" V 5200 2100 50  0000 C CNN
F 1 "10u" V 5300 2100 50  0000 C CNN
F 2 "Capacitor_SMD:C_0805_2012Metric" H 5288 2250 50  0001 C CNN
F 3 "~" H 5250 2400 50  0001 C CNN
	1    5250 2400
	0    -1   -1   0   
$EndComp
Connection ~ 5100 2400
Wire Wire Line
	5100 2400 5100 2600
$Comp
L Device:C C?
U 1 1 61D96381
P 5250 2600
AR Path="/61D86EDF/61D96381" Ref="C?"  Part="1" 
AR Path="/61D8E19D/61D96381" Ref="C65"  Part="1" 
F 0 "C65" V 4998 2600 50  0000 C CNN
F 1 "100n" V 5089 2600 50  0000 C CNN
F 2 "Capacitor_SMD:C_0603_1608Metric" H 5288 2450 50  0001 C CNN
F 3 "~" H 5250 2600 50  0001 C CNN
	1    5250 2600
	0    -1   -1   0   
$EndComp
Connection ~ 5100 2600
Wire Wire Line
	5100 2600 5100 2850
Wire Wire Line
	5400 2400 5400 2600
Wire Wire Line
	5400 2600 5650 2600
Wire Wire Line
	5650 2600 5650 4000
Connection ~ 5400 2600
Connection ~ 5650 4000
Wire Wire Line
	4250 2900 4100 2900
Wire Wire Line
	4100 2900 4100 3750
Connection ~ 4100 3750
Wire Wire Line
	4000 2900 4100 2900
Connection ~ 4100 2900
Text HLabel 6550 2400 0    50   Input ~ 0
+5V
Wire Wire Line
	6550 2400 6700 2400
Wire Wire Line
	6700 2400 6700 3450
$Comp
L Device:Thermistor_PTC TH?
U 1 1 61D96397
P 5100 1700
AR Path="/61D86EDF/61D96397" Ref="TH?"  Part="1" 
AR Path="/61D8E19D/61D96397" Ref="TH2"  Part="1" 
F 0 "TH2" H 5197 1746 50  0000 L CNN
F 1 "1.5A" H 5197 1655 50  0000 L CNN
F 2 "Fuse:Fuse_1210_3225Metric" H 5150 1500 50  0001 L CNN
F 3 "~" H 5100 1700 50  0001 C CNN
	1    5100 1700
	1    0    0    -1  
$EndComp
Wire Wire Line
	5100 1550 5100 1400
Wire Wire Line
	5400 2200 5400 2400
Connection ~ 5400 2400
$Comp
L Device:CP C?
U 1 1 61D963A0
P 5250 2200
AR Path="/61D86EDF/61D963A0" Ref="C?"  Part="1" 
AR Path="/61D8E19D/61D963A0" Ref="C63"  Part="1" 
F 0 "C63" V 5505 2200 50  0000 C CNN
F 1 "100u" V 5414 2200 50  0000 C CNN
F 2 "Capacitor_SMD:C_0603_1608Metric" H 5288 2050 50  0001 C CNN
F 3 "~" H 5250 2200 50  0001 C CNN
	1    5250 2200
	0    -1   -1   0   
$EndComp
Wire Wire Line
	5100 1850 5100 2200
Connection ~ 5100 2200
Wire Wire Line
	5100 2200 5100 2400
Wire Wire Line
	3400 3400 4550 3400
Wire Wire Line
	4250 2600 5000 2600
Wire Wire Line
	4550 3500 3800 3500
Connection ~ 3800 3500
Wire Wire Line
	3800 3500 3800 3750
Wire Wire Line
	3400 3300 4550 3300
Text HLabel 3400 3200 0    50   Input ~ 0
MOTOR2_ENABLE
$Comp
L Device:R R?
U 1 1 61D963B0
P 4300 3700
AR Path="/61D86EDF/61D963B0" Ref="R?"  Part="1" 
AR Path="/61D8E19D/61D963B0" Ref="R41"  Part="1" 
F 0 "R41" V 4093 3700 50  0000 C CNN
F 1 "10K" V 4184 3700 50  0000 C CNN
F 2 "Resistor_SMD:R_0603_1608Metric_Pad0.98x0.95mm_HandSolder" V 4230 3700 50  0001 C CNN
F 3 "~" H 4300 3700 50  0001 C CNN
	1    4300 3700
	-1   0    0    1   
$EndComp
Wire Wire Line
	3800 3750 3800 4000
Wire Wire Line
	3400 3200 4300 3200
Wire Wire Line
	4300 3550 4300 3200
Connection ~ 4300 3200
Wire Wire Line
	4300 3200 4550 3200
Wire Wire Line
	4300 3850 4300 4000
Connection ~ 4300 4000
Wire Wire Line
	4300 4000 4800 4000
Wire Wire Line
	5650 4000 6550 4000
Wire Wire Line
	5550 3150 7050 3150
Wire Wire Line
	7050 3250 5800 3250
Wire Wire Line
	5800 3250 5800 3550
Wire Wire Line
	5550 3550 5800 3550
$EndSCHEMATC
