EESchema Schematic File Version 4
EELAYER 30 0
EELAYER END
$Descr A4 11693 8268
encoding utf-8
Sheet 2 11
Title ""
Date ""
Rev ""
Comp ""
Comment1 ""
Comment2 ""
Comment3 ""
Comment4 ""
$EndDescr
$Comp
L byDave:BD63573NUV U?
U 1 1 61D89E81
P 4500 3750
AR Path="/61D89E81" Ref="U?"  Part="1" 
AR Path="/61D86EDF/61D89E81" Ref="U17"  Part="1" 
F 0 "U17" H 4750 3250 50  0000 L CNN
F 1 "BD63573NUV" H 3900 3200 50  0000 L CNN
F 2 "Package_SON:VSON-10-1EP_3x3mm_P0.5mm_EP1.65x2.4mm_ThermalVias" H 4400 3750 50  0001 C CNN
F 3 "" H 4400 3750 50  0001 C CNN
	1    4500 3750
	1    0    0    -1  
$EndComp
$Comp
L Connector:6P6C J?
U 1 1 61D89E87
P 6950 3750
AR Path="/61D89E87" Ref="J?"  Part="1" 
AR Path="/61D86EDF/61D89E87" Ref="J7"  Part="1" 
F 0 "J7" H 6620 3754 50  0000 R CNN
F 1 "MOTOR1" H 6620 3845 50  0000 R CNN
F 2 "Mylibs:RJ12_DS1133-S60BP" V 6950 3775 50  0001 C CNN
F 3 "~" V 6950 3775 50  0001 C CNN
	1    6950 3750
	-1   0    0    1   
$EndComp
Wire Wire Line
	6550 3750 6050 3750
Wire Wire Line
	6550 3850 6200 3850
Wire Wire Line
	6150 3950 6550 3950
Wire Wire Line
	4400 4250 4500 4250
Connection ~ 4600 4250
Connection ~ 4500 4250
Wire Wire Line
	4500 4250 4600 4250
Text HLabel 4550 1950 1    50   Input ~ 0
VM
Text HLabel 4450 2700 1    50   Input ~ 0
+3V3
Wire Wire Line
	4450 2700 4450 3000
Text HLabel 2300 5350 0    50   Input ~ 0
GND
Wire Wire Line
	6050 3750 6050 4400
Wire Wire Line
	4600 4250 4600 4400
Connection ~ 4600 4400
Wire Wire Line
	4600 4400 5100 4400
Text HLabel 2300 4750 0    50   Input ~ 0
MOTOR1_ENCO_A
Text HLabel 2300 5150 0    50   Input ~ 0
MOTOR1_ENCO_B
Text HLabel 2850 3800 0    50   Input ~ 0
MOTOR1_PWM
Text HLabel 2850 3700 0    50   Input ~ 0
MOTOR1_DIR
$Comp
L Device:R R39
U 1 1 62108C0E
P 4900 4750
F 0 "R39" V 4693 4750 50  0000 C CNN
F 1 "4K7" V 4784 4750 50  0000 C CNN
F 2 "Resistor_SMD:R_0603_1608Metric_Pad0.98x0.95mm_HandSolder" V 4830 4750 50  0001 C CNN
F 3 "~" H 4900 4750 50  0001 C CNN
	1    4900 4750
	0    1    1    0   
$EndComp
$Comp
L Device:C C54
U 1 1 6210931A
P 4700 4900
F 0 "C54" H 4815 4946 50  0000 L CNN
F 1 "100p" H 4815 4855 50  0000 L CNN
F 2 "Capacitor_SMD:C_0603_1608Metric" H 4738 4750 50  0001 C CNN
F 3 "~" H 4700 4900 50  0001 C CNN
	1    4700 4900
	1    0    0    -1  
$EndComp
$Comp
L Device:R R40
U 1 1 6210A5E1
P 5450 5050
F 0 "R40" V 5243 5050 50  0000 C CNN
F 1 "4K7" V 5334 5050 50  0000 C CNN
F 2 "Resistor_SMD:R_0603_1608Metric_Pad0.98x0.95mm_HandSolder" V 5380 5050 50  0001 C CNN
F 3 "~" H 5450 5050 50  0001 C CNN
	1    5450 5050
	0    1    1    0   
$EndComp
$Comp
L Device:C C55
U 1 1 6210A5E7
P 5250 5200
F 0 "C55" H 5365 5246 50  0000 L CNN
F 1 "100p" H 5365 5155 50  0000 L CNN
F 2 "Capacitor_SMD:C_0603_1608Metric" H 5288 5050 50  0001 C CNN
F 3 "~" H 5250 5200 50  0001 C CNN
	1    5250 5200
	1    0    0    -1  
$EndComp
Wire Wire Line
	4250 4400 4600 4400
Wire Wire Line
	5250 5050 5300 5050
Wire Wire Line
	4750 4750 4700 4750
Connection ~ 4700 4750
Wire Wire Line
	4700 4750 3800 4750
Wire Wire Line
	5250 5050 4850 5050
Wire Wire Line
	4850 5050 4850 5150
Connection ~ 5250 5050
Wire Wire Line
	6150 3950 6150 4750
Wire Wire Line
	6150 4750 5050 4750
Wire Wire Line
	5600 5050 6250 5050
Wire Wire Line
	6250 5050 6250 4050
Wire Wire Line
	6250 4050 6550 4050
$Comp
L 74xGxx:SN74LVC1G14DBV U16
U 1 1 6210CF6E
P 3600 4750
F 0 "U16" H 3356 4796 50  0000 R CNN
F 1 "74HC2G14" H 3356 4705 50  0000 R CNN
F 2 "Package_TO_SOT_SMD:SOT-23-5" H 3600 4500 50  0001 C CNN
F 3 "http://www.ti.com/lit/ds/symlink/sn74lvc1g14.pdf" H 3600 4750 50  0001 C CNN
	1    3600 4750
	-1   0    0    -1  
$EndComp
$Comp
L 74xGxx:SN74LVC1G14DBV U15
U 1 1 6210D8D6
P 3250 5150
F 0 "U15" H 3006 5196 50  0000 R CNN
F 1 "74HC2G14" H 3006 5105 50  0000 R CNN
F 2 "Package_TO_SOT_SMD:SOT-23-5" H 3250 4900 50  0001 C CNN
F 3 "http://www.ti.com/lit/ds/symlink/sn74lvc1g14.pdf" H 3250 5150 50  0001 C CNN
	1    3250 5150
	-1   0    0    -1  
$EndComp
Wire Wire Line
	3450 5150 4850 5150
Wire Wire Line
	4250 5350 4250 4400
Connection ~ 4250 5350
Connection ~ 4700 5350
Wire Wire Line
	4700 5050 4700 5350
Wire Wire Line
	5250 5350 4700 5350
Wire Wire Line
	4700 5350 4250 5350
Wire Wire Line
	3250 5350 3600 5350
Wire Wire Line
	3600 4950 3600 5350
Connection ~ 3600 5350
Wire Wire Line
	3600 5350 4250 5350
Wire Wire Line
	2300 4750 3300 4750
Wire Wire Line
	2950 5150 2300 5150
$Comp
L Device:C C48
U 1 1 62116EB4
P 3400 4400
F 0 "C48" V 3300 4050 50  0000 C CNN
F 1 "100n" V 3400 4050 50  0000 C CNN
F 2 "Capacitor_SMD:C_0603_1608Metric" H 3438 4250 50  0001 C CNN
F 3 "~" H 3400 4400 50  0001 C CNN
	1    3400 4400
	0    1    1    0   
$EndComp
$Comp
L Device:C C47
U 1 1 62117BEF
P 3400 4150
F 0 "C47" V 3300 3800 50  0000 C CNN
F 1 "100n" V 3350 3800 50  0000 C CNN
F 2 "Capacitor_SMD:C_0603_1608Metric" H 3438 4000 50  0001 C CNN
F 3 "~" H 3400 4150 50  0001 C CNN
	1    3400 4150
	0    1    1    0   
$EndComp
Wire Wire Line
	3600 4550 3250 4550
Wire Wire Line
	3250 4550 3250 4400
Connection ~ 3250 4550
Wire Wire Line
	3250 4950 3250 4550
Wire Wire Line
	3250 3000 3250 3900
Connection ~ 4450 3000
Wire Wire Line
	4450 3000 4450 3250
Connection ~ 3250 4150
Wire Wire Line
	2300 5350 3250 5350
Connection ~ 3250 5350
Connection ~ 3250 4400
Wire Wire Line
	3550 4150 3550 4400
Wire Wire Line
	3550 4400 3750 4400
Connection ~ 3550 4400
Connection ~ 4250 4400
$Comp
L Device:C C49
U 1 1 61D57121
P 3450 3150
F 0 "C49" V 3350 2850 50  0000 C CNN
F 1 "100n" V 3450 2800 50  0000 C CNN
F 2 "Capacitor_SMD:C_0603_1608Metric" H 3488 3000 50  0001 C CNN
F 3 "~" H 3450 3150 50  0001 C CNN
	1    3450 3150
	-1   0    0    1   
$EndComp
Connection ~ 3450 3000
Wire Wire Line
	3450 3000 3250 3000
$Comp
L Device:C C50
U 1 1 61D57976
P 3700 3150
F 0 "C50" V 3448 3150 50  0000 C CNN
F 1 "10u" V 3539 3150 50  0000 C CNN
F 2 "Capacitor_SMD:C_0805_2012Metric" H 3738 3000 50  0001 C CNN
F 3 "~" H 3700 3150 50  0001 C CNN
	1    3700 3150
	-1   0    0    1   
$EndComp
Connection ~ 3700 3000
Wire Wire Line
	3700 3000 3450 3000
$Comp
L Device:C C52
U 1 1 61D57AE6
P 4700 2800
F 0 "C52" V 4650 2500 50  0000 C CNN
F 1 "10u" V 4750 2500 50  0000 C CNN
F 2 "Capacitor_SMD:C_0805_2012Metric" H 4738 2650 50  0001 C CNN
F 3 "~" H 4700 2800 50  0001 C CNN
	1    4700 2800
	0    -1   -1   0   
$EndComp
Connection ~ 4550 2800
Wire Wire Line
	4550 2800 4550 3000
$Comp
L Device:C C53
U 1 1 61D57FAB
P 4700 3000
F 0 "C53" V 4448 3000 50  0000 C CNN
F 1 "100n" V 4539 3000 50  0000 C CNN
F 2 "Capacitor_SMD:C_0603_1608Metric" H 4738 2850 50  0001 C CNN
F 3 "~" H 4700 3000 50  0001 C CNN
	1    4700 3000
	0    -1   -1   0   
$EndComp
Connection ~ 4550 3000
Wire Wire Line
	4550 3000 4550 3250
Wire Wire Line
	4850 2800 4850 3000
Wire Wire Line
	4850 3000 5100 3000
Wire Wire Line
	5100 3000 5100 4400
Connection ~ 4850 3000
Connection ~ 5100 4400
Wire Wire Line
	3700 3300 3550 3300
Wire Wire Line
	3550 3300 3550 4150
Connection ~ 3550 4150
Wire Wire Line
	3450 3300 3550 3300
Connection ~ 3550 3300
Text HLabel 6050 2800 0    50   Input ~ 0
+5V
Wire Wire Line
	6050 2800 6200 2800
Wire Wire Line
	6200 2800 6200 3850
$Comp
L Device:Thermistor_PTC TH1
U 1 1 61D66D24
P 4550 2250
F 0 "TH1" H 4647 2296 50  0000 L CNN
F 1 "1.5A" H 4647 2205 50  0000 L CNN
F 2 "Fuse:Fuse_1210_3225Metric" H 4600 2050 50  0001 L CNN
F 3 "~" H 4550 2250 50  0001 C CNN
	1    4550 2250
	1    0    0    -1  
$EndComp
Wire Wire Line
	4550 2100 4550 1950
Wire Wire Line
	2850 3800 4000 3800
Wire Wire Line
	3700 3000 4450 3000
Wire Wire Line
	4000 3900 3250 3900
Connection ~ 3250 3900
Wire Wire Line
	3250 3900 3250 4150
Wire Wire Line
	2850 3700 4000 3700
Text HLabel 2850 3600 0    50   Input ~ 0
MOTOR1_ENABLE
$Comp
L Device:R R38
U 1 1 61D81C7B
P 3750 4100
F 0 "R38" V 3543 4100 50  0000 C CNN
F 1 "10K" V 3634 4100 50  0000 C CNN
F 2 "Resistor_SMD:R_0603_1608Metric_Pad0.98x0.95mm_HandSolder" V 3680 4100 50  0001 C CNN
F 3 "~" H 3750 4100 50  0001 C CNN
	1    3750 4100
	-1   0    0    1   
$EndComp
Wire Wire Line
	3250 4150 3250 4400
Wire Wire Line
	2850 3600 3750 3600
Wire Wire Line
	3750 3950 3750 3600
Connection ~ 3750 3600
Wire Wire Line
	3750 3600 4000 3600
Wire Wire Line
	3750 4250 3750 4400
Connection ~ 3750 4400
Wire Wire Line
	3750 4400 4250 4400
Wire Wire Line
	5100 4400 6050 4400
Wire Wire Line
	5000 3550 6550 3550
Wire Wire Line
	5400 3650 5400 3950
Wire Wire Line
	5000 3950 5400 3950
Wire Wire Line
	5400 3650 6550 3650
Wire Wire Line
	4550 2400 4550 2800
$EndSCHEMATC
