EESchema Schematic File Version 4
EELAYER 30 0
EELAYER END
$Descr A4 11693 8268
encoding utf-8
Sheet 5 11
Title ""
Date ""
Rev ""
Comp ""
Comment1 ""
Comment2 ""
Comment3 ""
Comment4 ""
$EndDescr
$Comp
L Connector:6P6C J?
U 1 1 61DC679E
P 7400 4000
AR Path="/61DC679E" Ref="J?"  Part="1" 
AR Path="/61D86EDF/61DC679E" Ref="J?"  Part="1" 
AR Path="/61D903CF/61DC679E" Ref="J?"  Part="1" 
AR Path="/61D904B4/61DC679E" Ref="J10"  Part="1" 
F 0 "J10" H 7070 4004 50  0000 R CNN
F 1 "MOTOR4" H 7070 4095 50  0000 R CNN
F 2 "Mylibs:RJ12_DS1133-S60BP" V 7400 4025 50  0001 C CNN
F 3 "~" V 7400 4025 50  0001 C CNN
	1    7400 4000
	-1   0    0    1   
$EndComp
$Comp
L byDave:BD63573NUV U?
U 1 1 61E096BB
P 4750 4000
AR Path="/61E096BB" Ref="U?"  Part="1" 
AR Path="/61D86EDF/61E096BB" Ref="U?"  Part="1" 
AR Path="/61D904B4/61E096BB" Ref="U26"  Part="1" 
F 0 "U26" H 5000 3500 50  0000 L CNN
F 1 "BD63573NUV" H 4050 3500 50  0000 L CNN
F 2 "Package_SON:VSON-10-1EP_3x3mm_P0.5mm_EP1.65x2.4mm_ThermalVias" H 4650 4000 50  0001 C CNN
F 3 "" H 4650 4000 50  0001 C CNN
	1    4750 4000
	1    0    0    -1  
$EndComp
Wire Wire Line
	7000 3900 6350 3900
Wire Wire Line
	6350 3900 6350 4200
Wire Wire Line
	7000 4000 6500 4000
Wire Wire Line
	7000 4100 6650 4100
Wire Wire Line
	6600 4200 7000 4200
Wire Wire Line
	4650 4500 4750 4500
Connection ~ 4850 4500
Connection ~ 4750 4500
Wire Wire Line
	4750 4500 4850 4500
Text HLabel 4800 2050 1    50   Input ~ 0
VM
Text HLabel 4700 2950 1    50   Input ~ 0
+3V3
Wire Wire Line
	4700 2950 4700 3250
Text HLabel 2550 5600 0    50   Input ~ 0
GND
Wire Wire Line
	6500 4000 6500 4650
Wire Wire Line
	4850 4500 4850 4650
Connection ~ 4850 4650
Wire Wire Line
	4850 4650 5400 4650
Text HLabel 2550 5000 0    50   Input ~ 0
MOTOR4_ENCO_A
Text HLabel 2550 5400 0    50   Input ~ 0
MOTOR4_ENCO_B
Text HLabel 3100 4050 0    50   Input ~ 0
MOTOR4_PWM
Text HLabel 3100 3950 0    50   Input ~ 0
MOTOR4_DIR
$Comp
L Device:R R48
U 1 1 61E096DE
P 5150 5000
F 0 "R48" V 4943 5000 50  0000 C CNN
F 1 "4K7" V 5034 5000 50  0000 C CNN
F 2 "Resistor_SMD:R_0603_1608Metric_Pad0.98x0.95mm_HandSolder" V 5080 5000 50  0001 C CNN
F 3 "~" H 5150 5000 50  0001 C CNN
	1    5150 5000
	0    1    1    0   
$EndComp
$Comp
L Device:C C90
U 1 1 61E096E4
P 4950 5150
F 0 "C90" H 5065 5196 50  0000 L CNN
F 1 "100p" H 5065 5105 50  0000 L CNN
F 2 "Capacitor_SMD:C_0603_1608Metric" H 4988 5000 50  0001 C CNN
F 3 "~" H 4950 5150 50  0001 C CNN
	1    4950 5150
	1    0    0    -1  
$EndComp
$Comp
L Device:R R49
U 1 1 61E096EA
P 6450 5300
F 0 "R49" V 6243 5300 50  0000 C CNN
F 1 "4K7" V 6334 5300 50  0000 C CNN
F 2 "Resistor_SMD:R_0603_1608Metric_Pad0.98x0.95mm_HandSolder" V 6380 5300 50  0001 C CNN
F 3 "~" H 6450 5300 50  0001 C CNN
	1    6450 5300
	0    1    1    0   
$EndComp
$Comp
L Device:C C91
U 1 1 61E096F0
P 5500 5450
F 0 "C91" H 5615 5496 50  0000 L CNN
F 1 "100p" H 5615 5405 50  0000 L CNN
F 2 "Capacitor_SMD:C_0603_1608Metric" H 5538 5300 50  0001 C CNN
F 3 "~" H 5500 5450 50  0001 C CNN
	1    5500 5450
	1    0    0    -1  
$EndComp
Wire Wire Line
	4500 4650 4850 4650
Wire Wire Line
	5500 5300 6300 5300
Wire Wire Line
	5000 5000 4950 5000
Connection ~ 4950 5000
Wire Wire Line
	4950 5000 4050 5000
Wire Wire Line
	5500 5300 5100 5300
Wire Wire Line
	5100 5300 5100 5400
Connection ~ 5500 5300
Wire Wire Line
	6600 4200 6600 5000
Wire Wire Line
	6600 5000 5300 5000
Wire Wire Line
	6600 5300 6700 5300
Wire Wire Line
	6700 5300 6700 4300
Wire Wire Line
	6700 4300 7000 4300
$Comp
L 74xGxx:SN74LVC1G14DBV U25
U 1 1 61E09703
P 3850 5000
F 0 "U25" H 3606 5046 50  0000 R CNN
F 1 "74HC2G14" H 3606 4955 50  0000 R CNN
F 2 "Package_TO_SOT_SMD:SOT-23-5" H 3850 4750 50  0001 C CNN
F 3 "http://www.ti.com/lit/ds/symlink/sn74lvc1g14.pdf" H 3850 5000 50  0001 C CNN
	1    3850 5000
	-1   0    0    -1  
$EndComp
$Comp
L 74xGxx:SN74LVC1G14DBV U24
U 1 1 61E09709
P 3500 5400
F 0 "U24" H 3256 5446 50  0000 R CNN
F 1 "74HC2G14" H 3256 5355 50  0000 R CNN
F 2 "Package_TO_SOT_SMD:SOT-23-5" H 3500 5150 50  0001 C CNN
F 3 "http://www.ti.com/lit/ds/symlink/sn74lvc1g14.pdf" H 3500 5400 50  0001 C CNN
	1    3500 5400
	-1   0    0    -1  
$EndComp
Wire Wire Line
	3700 5400 5100 5400
Wire Wire Line
	4500 5600 4500 4650
Connection ~ 4500 5600
Connection ~ 4950 5600
Wire Wire Line
	4950 5300 4950 5600
Wire Wire Line
	5500 5600 4950 5600
Wire Wire Line
	4950 5600 4500 5600
Wire Wire Line
	3500 5600 3850 5600
Wire Wire Line
	3850 5200 3850 5600
Connection ~ 3850 5600
Wire Wire Line
	3850 5600 4500 5600
Wire Wire Line
	2550 5000 3550 5000
Wire Wire Line
	3200 5400 2550 5400
$Comp
L Device:C C84
U 1 1 61E0971C
P 3650 4650
F 0 "C84" V 3700 4300 50  0000 C CNN
F 1 "100n" V 3600 4300 50  0000 C CNN
F 2 "Capacitor_SMD:C_0603_1608Metric" H 3688 4500 50  0001 C CNN
F 3 "~" H 3650 4650 50  0001 C CNN
	1    3650 4650
	0    1    1    0   
$EndComp
$Comp
L Device:C C83
U 1 1 61E09722
P 3650 4400
F 0 "C83" V 3500 4050 50  0000 C CNN
F 1 "100n" V 3600 4050 50  0000 C CNN
F 2 "Capacitor_SMD:C_0603_1608Metric" H 3688 4250 50  0001 C CNN
F 3 "~" H 3650 4400 50  0001 C CNN
	1    3650 4400
	0    1    1    0   
$EndComp
Wire Wire Line
	3850 4800 3500 4800
Wire Wire Line
	3500 4800 3500 4650
Connection ~ 3500 4800
Wire Wire Line
	3500 5200 3500 4800
Wire Wire Line
	3500 3250 3500 4150
Connection ~ 4700 3250
Wire Wire Line
	4700 3250 4700 3500
Connection ~ 3500 4400
Wire Wire Line
	2550 5600 3500 5600
Connection ~ 3500 5600
Connection ~ 3500 4650
Wire Wire Line
	3800 4400 3800 4650
Wire Wire Line
	3800 4650 4000 4650
Connection ~ 3800 4650
Connection ~ 4500 4650
$Comp
L Device:C C85
U 1 1 61E09737
P 3700 3400
F 0 "C85" V 3650 3100 50  0000 C CNN
F 1 "100n" V 3750 3100 50  0000 C CNN
F 2 "Capacitor_SMD:C_0603_1608Metric" H 3738 3250 50  0001 C CNN
F 3 "~" H 3700 3400 50  0001 C CNN
	1    3700 3400
	-1   0    0    1   
$EndComp
Connection ~ 3700 3250
Wire Wire Line
	3700 3250 3500 3250
$Comp
L Device:C C86
U 1 1 61E0973F
P 3950 3400
F 0 "C86" V 3698 3400 50  0000 C CNN
F 1 "10u" V 3789 3400 50  0000 C CNN
F 2 "Capacitor_SMD:C_0805_2012Metric" H 3988 3250 50  0001 C CNN
F 3 "~" H 3950 3400 50  0001 C CNN
	1    3950 3400
	-1   0    0    1   
$EndComp
Connection ~ 3950 3250
Wire Wire Line
	3950 3250 3700 3250
$Comp
L Device:C C88
U 1 1 61E09747
P 4950 3050
F 0 "C88" V 4900 2750 50  0000 C CNN
F 1 "10u" V 5000 2750 50  0000 C CNN
F 2 "Capacitor_SMD:C_0805_2012Metric" H 4988 2900 50  0001 C CNN
F 3 "~" H 4950 3050 50  0001 C CNN
	1    4950 3050
	0    -1   -1   0   
$EndComp
Connection ~ 4800 3050
Wire Wire Line
	4800 3050 4800 3250
$Comp
L Device:C C89
U 1 1 61E0974F
P 4950 3250
F 0 "C89" V 4698 3250 50  0000 C CNN
F 1 "100n" V 4789 3250 50  0000 C CNN
F 2 "Capacitor_SMD:C_0603_1608Metric" H 4988 3100 50  0001 C CNN
F 3 "~" H 4950 3250 50  0001 C CNN
	1    4950 3250
	0    -1   -1   0   
$EndComp
Connection ~ 4800 3250
Wire Wire Line
	4800 3250 4800 3500
Wire Wire Line
	5100 3050 5100 3250
Wire Wire Line
	5100 3250 5400 3250
Wire Wire Line
	5400 3250 5400 4650
Connection ~ 5100 3250
Connection ~ 5400 4650
Wire Wire Line
	3950 3550 3800 3550
Wire Wire Line
	3800 3550 3800 4400
Connection ~ 3800 4400
Wire Wire Line
	3700 3550 3800 3550
Connection ~ 3800 3550
Text HLabel 6500 3050 0    50   Input ~ 0
+5V
Wire Wire Line
	6500 3050 6650 3050
Wire Wire Line
	6650 3050 6650 4100
$Comp
L Device:Thermistor_PTC TH4
U 1 1 61E09765
P 4800 2350
F 0 "TH4" H 4897 2396 50  0000 L CNN
F 1 "1.5A" H 4897 2305 50  0000 L CNN
F 2 "Fuse:Fuse_1210_3225Metric" H 4850 2150 50  0001 L CNN
F 3 "~" H 4800 2350 50  0001 C CNN
	1    4800 2350
	1    0    0    -1  
$EndComp
Wire Wire Line
	4800 2200 4800 2050
Wire Wire Line
	3100 4050 4250 4050
Wire Wire Line
	3950 3250 4700 3250
Wire Wire Line
	4250 4150 3500 4150
Connection ~ 3500 4150
Wire Wire Line
	3500 4150 3500 4400
Wire Wire Line
	3100 3950 4250 3950
Text HLabel 3100 3850 0    50   Input ~ 0
MOTOR4_ENABLE
$Comp
L Device:R R47
U 1 1 61E0977E
P 4000 4350
F 0 "R47" V 3793 4350 50  0000 C CNN
F 1 "10K" V 3884 4350 50  0000 C CNN
F 2 "Resistor_SMD:R_0603_1608Metric_Pad0.98x0.95mm_HandSolder" V 3930 4350 50  0001 C CNN
F 3 "~" H 4000 4350 50  0001 C CNN
	1    4000 4350
	-1   0    0    1   
$EndComp
Wire Wire Line
	3500 4400 3500 4650
Wire Wire Line
	3100 3850 4000 3850
Wire Wire Line
	4000 4200 4000 3850
Connection ~ 4000 3850
Wire Wire Line
	4000 3850 4250 3850
Wire Wire Line
	4000 4500 4000 4650
Connection ~ 4000 4650
Wire Wire Line
	4000 4650 4500 4650
Wire Wire Line
	4800 2500 4800 3050
Wire Wire Line
	5250 3800 7000 3800
Wire Wire Line
	5250 4200 6350 4200
Wire Wire Line
	5400 4650 6500 4650
$EndSCHEMATC
