EESchema Schematic File Version 4
EELAYER 30 0
EELAYER END
$Descr A4 11693 8268
encoding utf-8
Sheet 11 11
Title ""
Date ""
Rev ""
Comp ""
Comment1 ""
Comment2 ""
Comment3 ""
Comment4 ""
$EndDescr
$Comp
L Device:Q_PNP_BCE Q15
U 1 1 6286F751
P 2700 3100
F 0 "Q15" H 2891 3054 50  0000 L CNN
F 1 "BC857" H 2891 3145 50  0000 L CNN
F 2 "Package_TO_SOT_SMD:SOT-23" H 2900 3200 50  0001 C CNN
F 3 "~" H 2700 3100 50  0001 C CNN
	1    2700 3100
	-1   0    0    1   
$EndComp
$Comp
L Device:Q_PNP_EBC Q16
U 1 1 62870874
P 3050 3800
F 0 "Q16" H 3240 3754 50  0000 L CNN
F 1 "SS8550" H 3240 3845 50  0000 L CNN
F 2 "Package_TO_SOT_THT:TO-92" H 3250 3900 50  0001 C CNN
F 3 "~" H 3050 3800 50  0001 C CNN
	1    3050 3800
	1    0    0    1   
$EndComp
$Comp
L Device:D_Schottky D23
U 1 1 628711AB
P 2950 2650
F 0 "D23" H 2950 2433 50  0000 C CNN
F 1 "SS14" H 2950 2524 50  0000 C CNN
F 2 "Diode_SMD:D_SMA" H 2950 2650 50  0001 C CNN
F 3 "~" H 2950 2650 50  0001 C CNN
	1    2950 2650
	-1   0    0    1   
$EndComp
$Comp
L Device:R R96
U 1 1 62871AC9
P 2600 4050
F 0 "R96" H 2670 4096 50  0000 L CNN
F 1 "1K" H 2670 4005 50  0000 L CNN
F 2 "Resistor_SMD:R_0603_1608Metric_Pad0.98x0.95mm_HandSolder" V 2530 4050 50  0001 C CNN
F 3 "~" H 2600 4050 50  0001 C CNN
	1    2600 4050
	1    0    0    -1  
$EndComp
$Comp
L Device:D D22
U 1 1 62872082
P 2600 3600
F 0 "D22" V 2646 3520 50  0000 R CNN
F 1 "1N4148" V 2555 3520 50  0000 R CNN
F 2 "Diode_SMD:D_MiniMELF" H 2600 3600 50  0001 C CNN
F 3 "~" H 2600 3600 50  0001 C CNN
	1    2600 3600
	0    -1   -1   0   
$EndComp
$Comp
L Device:CP C133
U 1 1 62872823
P 3150 4400
F 0 "C133" H 3268 4446 50  0000 L CNN
F 1 "100u" H 3268 4355 50  0000 L CNN
F 2 "Capacitor_SMD:CP_Elec_6.3x5.9" H 3188 4250 50  0001 C CNN
F 3 "~" H 3150 4400 50  0001 C CNN
	1    3150 4400
	1    0    0    -1  
$EndComp
Text HLabel 2400 2450 0    50   Input ~ 0
Vin
Text HLabel 3350 4150 2    50   Input ~ 0
Vout
Text HLabel 2500 4850 0    50   Input ~ 0
GND
$Comp
L Device:R R97
U 1 1 62878DE8
P 3150 2850
F 0 "R97" H 3220 2896 50  0000 L CNN
F 1 "1R8" H 3220 2805 50  0000 L CNN
F 2 "Resistor_SMD:R_0603_1608Metric_Pad0.98x0.95mm_HandSolder" V 3080 2850 50  0001 C CNN
F 3 "~" H 3150 2850 50  0001 C CNN
	1    3150 2850
	1    0    0    -1  
$EndComp
Wire Wire Line
	2500 4850 2600 4850
Wire Wire Line
	2600 4850 2600 4200
Wire Wire Line
	2600 4850 3150 4850
Wire Wire Line
	3150 4850 3150 4550
Connection ~ 2600 4850
Wire Wire Line
	2400 2450 2600 2450
Wire Wire Line
	2600 2450 2600 2650
Wire Wire Line
	2800 2650 2600 2650
Connection ~ 2600 2650
Wire Wire Line
	2600 2650 2600 2900
Wire Wire Line
	3150 3000 3150 3100
Wire Wire Line
	3100 2650 3150 2650
Wire Wire Line
	3150 2650 3150 2700
Wire Wire Line
	2900 3100 3150 3100
Connection ~ 3150 3100
Wire Wire Line
	3150 3100 3150 3600
Wire Wire Line
	2850 3800 2600 3800
Wire Wire Line
	2600 3800 2600 3750
Wire Wire Line
	2600 3900 2600 3800
Connection ~ 2600 3800
Wire Wire Line
	2600 3450 2600 3300
Wire Wire Line
	3150 4250 3150 4150
Wire Wire Line
	3350 4150 3150 4150
Connection ~ 3150 4150
Wire Wire Line
	3150 4150 3150 4000
$EndSCHEMATC
