EESchema Schematic File Version 4
EELAYER 30 0
EELAYER END
$Descr A4 11693 8268
encoding utf-8
Sheet 11 11
Title ""
Date ""
Rev ""
Comp ""
Comment1 ""
Comment2 ""
Comment3 ""
Comment4 ""
$EndDescr
Text HLabel 1450 800  0    50   Input ~ 0
PWR+
Text HLabel 1500 3350 0    50   Input ~ 0
PWR-
Text HLabel 10200 2150 2    50   Input ~ 0
+5Vout
Text HLabel 10150 3200 2    50   Input ~ 0
+3V3out
Text HLabel 6300 5400 2    50   Input ~ 0
GND
Text HLabel 6300 4200 2    50   Input ~ 0
Vbat
Text HLabel 4050 5400 0    50   Input ~ 0
BUT_ONOFF_1
Text HLabel 4050 4700 0    50   Input ~ 0
BUT_ONOFF_2
$Comp
L Battery_Management:LTC4002ES8-8.4 U30
U 1 1 652B634E
P 2950 2050
F 0 "U30" H 2950 2631 50  0000 C CNN
F 1 "LTC4002ES8-8.4" H 2950 2540 50  0000 C CNN
F 2 "Package_SO:SOIC-8_3.9x4.9mm_P1.27mm" H 2950 1600 50  0001 C CNN
F 3 "https://www.analog.com/media/en/technical-documentation/data-sheets/4002f.pdf" H 2550 2400 50  0001 C CNN
	1    2950 2050
	1    0    0    -1  
$EndComp
$Comp
L Device:R R59
U 1 1 652C1EEF
P 2300 1000
F 0 "R59" V 2200 1000 50  0000 C CNN
F 1 "100K" V 2400 1000 50  0000 C CNN
F 2 "Resistor_SMD:R_0603_1608Metric_Pad0.98x0.95mm_HandSolder" V 2230 1000 50  0001 C CNN
F 3 "~" H 2300 1000 50  0001 C CNN
	1    2300 1000
	0    1    1    0   
$EndComp
Wire Wire Line
	3800 1000 2450 1000
Wire Wire Line
	2450 1000 2450 1850
Connection ~ 2450 1000
Wire Wire Line
	4100 800  2050 800 
Wire Wire Line
	2150 1000 2050 1000
Wire Wire Line
	2050 1000 2050 800 
Connection ~ 2050 800 
Wire Wire Line
	2050 800  1450 800 
Wire Wire Line
	3450 1850 3800 1850
$Comp
L Device:L L12
U 1 1 652C5E15
P 4100 2200
F 0 "L12" H 4152 2246 50  0000 L CNN
F 1 "6.8u" H 4152 2155 50  0000 L CNN
F 2 "" H 4100 2200 50  0001 C CNN
F 3 "~" H 4100 2200 50  0001 C CNN
	1    4100 2200
	1    0    0    -1  
$EndComp
$Comp
L Device:R R64
U 1 1 652C6F24
P 4100 2500
F 0 "R64" H 4030 2454 50  0000 R CNN
F 1 "0.05R" H 4030 2545 50  0000 R CNN
F 2 "Resistor_SMD:R_0805_2012Metric_Pad1.20x1.40mm_HandSolder" V 4030 2500 50  0001 C CNN
F 3 "~" H 4100 2500 50  0001 C CNN
	1    4100 2500
	-1   0    0    1   
$EndComp
Wire Wire Line
	3450 2050 3900 2050
Wire Wire Line
	3900 2050 3900 2350
Wire Wire Line
	3900 2350 4100 2350
Connection ~ 4100 2350
Wire Wire Line
	3450 2150 3800 2150
Wire Wire Line
	3800 2150 3800 2650
Wire Wire Line
	3800 2650 4100 2650
$Comp
L Device:C C108
U 1 1 652CBFA9
P 3800 3050
F 0 "C108" H 3600 3200 50  0000 L CNN
F 1 "10u" H 3650 2950 50  0000 L CNN
F 2 "Capacitor_SMD:C_0805_2012Metric" H 3838 2900 50  0001 C CNN
F 3 "~" H 3800 3050 50  0001 C CNN
	1    3800 3050
	1    0    0    -1  
$EndComp
$Comp
L Device:C C105
U 1 1 652CC4E7
P 3500 1400
F 0 "C105" H 3200 1400 50  0000 L CNN
F 1 "100n" H 3200 1500 50  0000 L CNN
F 2 "Capacitor_SMD:C_0603_1608Metric" H 3538 1250 50  0001 C CNN
F 3 "~" H 3500 1400 50  0001 C CNN
	1    3500 1400
	1    0    0    -1  
$EndComp
$Comp
L Device:C C107
U 1 1 652E0160
P 3750 1400
F 0 "C107" H 3865 1446 50  0000 L CNN
F 1 "10u" H 3865 1355 50  0000 L CNN
F 2 "Capacitor_SMD:C_0805_2012Metric" H 3788 1250 50  0001 C CNN
F 3 "~" H 3750 1400 50  0001 C CNN
	1    3750 1400
	1    0    0    -1  
$EndComp
Wire Wire Line
	4100 1200 3750 1200
Wire Wire Line
	2950 1200 2950 1650
Wire Wire Line
	4100 1200 4100 1650
Wire Wire Line
	3750 1250 3750 1200
Connection ~ 3750 1200
Wire Wire Line
	3750 1200 3500 1200
Wire Wire Line
	3500 1250 3500 1200
Connection ~ 3500 1200
Wire Wire Line
	3500 1200 2950 1200
Connection ~ 4100 2650
Wire Wire Line
	3800 2650 3800 2900
Connection ~ 3800 2650
Wire Wire Line
	3800 3200 3800 3350
Connection ~ 3800 3350
Wire Wire Line
	3800 3350 3550 3350
$Comp
L Device:C C106
U 1 1 652E7A94
P 3550 3050
F 0 "C106" H 3300 3200 50  0000 L CNN
F 1 "10u" H 3350 2950 50  0000 L CNN
F 2 "Capacitor_SMD:C_0805_2012Metric" H 3588 2900 50  0001 C CNN
F 3 "~" H 3550 3050 50  0001 C CNN
	1    3550 3050
	1    0    0    -1  
$EndComp
Wire Wire Line
	3550 3200 3550 3350
Connection ~ 3550 3350
Wire Wire Line
	3550 3350 2950 3350
Wire Wire Line
	3800 2650 3550 2650
Wire Wire Line
	3550 2650 3550 2900
$Comp
L Device:D_Schottky D9
U 1 1 652EA3B5
P 4600 2300
F 0 "D9" V 4554 2380 50  0000 L CNN
F 1 "B330" V 4645 2380 50  0000 L CNN
F 2 "Diode_SMD:D_SMA" H 4600 2300 50  0001 C CNN
F 3 "~" H 4600 2300 50  0001 C CNN
	1    4600 2300
	0    1    1    0   
$EndComp
Wire Wire Line
	4600 2050 4600 2150
Wire Wire Line
	2950 2450 2950 3350
Connection ~ 2950 3350
Wire Wire Line
	2950 3350 2300 3350
Wire Wire Line
	4600 3350 4600 2450
Wire Wire Line
	3500 1550 3600 1550
$Comp
L Device:R R56
U 1 1 652F4FC9
P 1800 2500
F 0 "R56" H 1730 2454 50  0000 R CNN
F 1 "2K2" H 1730 2545 50  0000 R CNN
F 2 "Resistor_SMD:R_0603_1608Metric_Pad0.98x0.95mm_HandSolder" V 1730 2500 50  0001 C CNN
F 3 "~" H 1800 2500 50  0001 C CNN
	1    1800 2500
	-1   0    0    1   
$EndComp
$Comp
L Device:C C100
U 1 1 652F5971
P 1800 2900
F 0 "C100" H 1915 2946 50  0000 L CNN
F 1 "470n" H 1915 2855 50  0000 L CNN
F 2 "Capacitor_SMD:C_0603_1608Metric" H 1838 2750 50  0001 C CNN
F 3 "~" H 1800 2900 50  0001 C CNN
	1    1800 2900
	1    0    0    -1  
$EndComp
Wire Wire Line
	2450 2050 1800 2050
Wire Wire Line
	1800 2050 1800 2350
Wire Wire Line
	1800 2650 1800 2750
Wire Wire Line
	1800 3050 1800 3350
Connection ~ 1800 3350
Wire Wire Line
	1800 3350 1500 3350
$Comp
L Device:Thermistor_NTC TH5
U 1 1 652F9893
P 2300 2900
F 0 "TH5" H 2397 2946 50  0000 L CNN
F 1 "NTC 10K" H 2500 2700 50  0000 L CNN
F 2 "Fuse:Fuse_0805_2012Metric" H 2300 2950 50  0001 C CNN
F 3 "~" H 2300 2950 50  0001 C CNN
	1    2300 2900
	1    0    0    -1  
$EndComp
Wire Wire Line
	2450 2250 2300 2250
Wire Wire Line
	2300 2250 2300 2750
Wire Wire Line
	2300 3050 2300 3350
Connection ~ 2300 3350
Wire Wire Line
	2300 3350 1800 3350
$Comp
L Device:Q_PMOS_GDS Q14
U 1 1 62244E6B
P 5850 4300
F 0 "Q14" H 6055 4254 50  0000 L CNN
F 1 "Q_PMOS_GDS" H 6055 4345 50  0000 L CNN
F 2 "Package_TO_SOT_SMD:SOT-23" H 6050 4400 50  0001 C CNN
F 3 "~" H 5850 4300 50  0001 C CNN
	1    5850 4300
	0    1    -1   0   
$EndComp
$Comp
L Device:R R68
U 1 1 62247763
P 5350 4350
F 0 "R68" H 5280 4304 50  0000 R CNN
F 1 "47K" H 5280 4395 50  0000 R CNN
F 2 "Resistor_SMD:R_0603_1608Metric_Pad0.98x0.95mm_HandSolder" V 5280 4350 50  0001 C CNN
F 3 "~" H 5350 4350 50  0001 C CNN
	1    5350 4350
	-1   0    0    1   
$EndComp
Connection ~ 5350 4200
Wire Wire Line
	5350 4200 5650 4200
Wire Wire Line
	5350 4500 5850 4500
Connection ~ 5850 4500
$Comp
L Device:Q_NMOS_GSD Q?
U 1 1 62262CFD
P 5750 5100
AR Path="/62262CFD" Ref="Q?"  Part="1" 
AR Path="/61F5DA94/62262CFD" Ref="Q12"  Part="1" 
F 0 "Q12" H 5650 4900 50  0000 L CNN
F 1 "2N7002" H 5500 5250 50  0000 L CNN
F 2 "Package_TO_SOT_SMD:SOT-23" H 5950 5200 50  0001 C CNN
F 3 "~" H 5750 5100 50  0001 C CNN
	1    5750 5100
	1    0    0    -1  
$EndComp
Wire Wire Line
	5850 4900 5850 4700
Connection ~ 5850 4700
Wire Wire Line
	5850 5300 5850 5400
Connection ~ 5850 5400
Wire Wire Line
	6050 4200 6100 4200
$Comp
L byDave:AP1513 U33
U 1 1 623BA2CA
P 7250 2450
F 0 "U33" H 7275 3015 50  0000 C CNN
F 1 "AP1513" H 7275 2924 50  0000 C CNN
F 2 "Package_SO:SO-8_3.9x4.9mm_P1.27mm" H 7650 1550 50  0001 C CNN
F 3 "" H 7650 1550 50  0001 C CNN
	1    7250 2450
	1    0    0    -1  
$EndComp
$Comp
L byDave:AP1513 U34
U 1 1 623BAE90
P 7250 3550
F 0 "U34" H 7275 4115 50  0000 C CNN
F 1 "AP1513" H 7275 4024 50  0000 C CNN
F 2 "Package_SO:SO-8_3.9x4.9mm_P1.27mm" H 7650 2650 50  0001 C CNN
F 3 "" H 7650 2650 50  0001 C CNN
	1    7250 3550
	1    0    0    -1  
$EndComp
Wire Wire Line
	7150 2750 7350 2750
Connection ~ 7350 2750
Wire Wire Line
	7350 2750 8150 2750
Wire Wire Line
	7150 3850 7350 3850
Connection ~ 7350 3850
Wire Wire Line
	7350 3850 8200 3850
Wire Wire Line
	6100 2150 6200 2150
Connection ~ 6100 4200
Wire Wire Line
	6100 4200 6300 4200
Wire Wire Line
	6800 3250 6500 3250
Connection ~ 6100 3250
Wire Wire Line
	6100 3250 6100 2900
$Comp
L Device:L L13
U 1 1 623D85C3
P 8250 2150
F 0 "L13" H 8302 2196 50  0000 L CNN
F 1 "33u" H 8302 2105 50  0000 L CNN
F 2 "" H 8250 2150 50  0001 C CNN
F 3 "~" H 8250 2150 50  0001 C CNN
	1    8250 2150
	0    -1   -1   0   
$EndComp
$Comp
L Device:L L14
U 1 1 623D9190
P 8250 3200
F 0 "L14" H 8302 3246 50  0000 L CNN
F 1 "27u" H 8302 3155 50  0000 L CNN
F 2 "" H 8250 3200 50  0001 C CNN
F 3 "~" H 8250 3200 50  0001 C CNN
	1    8250 3200
	0    -1   -1   0   
$EndComp
$Comp
L Device:R R73
U 1 1 623D99DC
P 8600 2300
F 0 "R73" H 8530 2254 50  0000 R CNN
F 1 "6K8" H 8530 2345 50  0000 R CNN
F 2 "Resistor_SMD:R_0603_1608Metric_Pad0.98x0.95mm_HandSolder" V 8530 2300 50  0001 C CNN
F 3 "~" H 8600 2300 50  0001 C CNN
	1    8600 2300
	-1   0    0    1   
$EndComp
$Comp
L Device:R R74
U 1 1 623D9FBE
P 8600 2600
F 0 "R74" H 8530 2554 50  0000 R CNN
F 1 "1K3" H 8530 2645 50  0000 R CNN
F 2 "Resistor_SMD:R_0603_1608Metric_Pad0.98x0.95mm_HandSolder" V 8530 2600 50  0001 C CNN
F 3 "~" H 8600 2600 50  0001 C CNN
	1    8600 2600
	-1   0    0    1   
$EndComp
Connection ~ 8600 2750
Wire Wire Line
	8600 2750 8950 2750
$Comp
L Device:R R75
U 1 1 623DA2FA
P 8600 3350
F 0 "R75" H 8530 3304 50  0000 R CNN
F 1 "4K7" H 8530 3395 50  0000 R CNN
F 2 "Resistor_SMD:R_0603_1608Metric_Pad0.98x0.95mm_HandSolder" V 8530 3350 50  0001 C CNN
F 3 "~" H 8600 3350 50  0001 C CNN
	1    8600 3350
	-1   0    0    1   
$EndComp
$Comp
L Device:R R76
U 1 1 623DB27C
P 8600 3700
F 0 "R76" H 8530 3654 50  0000 R CNN
F 1 "1K5" H 8530 3745 50  0000 R CNN
F 2 "Resistor_SMD:R_0603_1608Metric_Pad0.98x0.95mm_HandSolder" V 8530 3700 50  0001 C CNN
F 3 "~" H 8600 3700 50  0001 C CNN
	1    8600 3700
	-1   0    0    1   
$EndComp
Connection ~ 8600 3850
Wire Wire Line
	8600 3500 8600 3550
$Comp
L Device:C C114
U 1 1 623E1784
P 8400 3350
F 0 "C114" H 8450 3650 50  0000 L CNN
F 1 "NC" H 8450 3550 50  0000 L CNN
F 2 "Capacitor_SMD:C_0603_1608Metric" H 8438 3200 50  0001 C CNN
F 3 "~" H 8400 3350 50  0001 C CNN
	1    8400 3350
	1    0    0    -1  
$EndComp
$Comp
L Device:C C113
U 1 1 623E353E
P 8400 2300
F 0 "C113" H 8450 2650 50  0000 L CNN
F 1 "NC" H 8450 2550 50  0000 L CNN
F 2 "Capacitor_SMD:C_0603_1608Metric" H 8438 2150 50  0001 C CNN
F 3 "~" H 8400 2300 50  0001 C CNN
	1    8400 2300
	1    0    0    -1  
$EndComp
$Comp
L Device:C C115
U 1 1 623E432E
P 8950 2300
F 0 "C115" H 9050 2400 50  0000 L CNN
F 1 "10u" H 9065 2255 50  0000 L CNN
F 2 "Capacitor_SMD:C_0805_2012Metric" H 8988 2150 50  0001 C CNN
F 3 "~" H 8950 2300 50  0001 C CNN
	1    8950 2300
	1    0    0    -1  
$EndComp
$Comp
L Device:C C117
U 1 1 623E4AD3
P 9300 2300
F 0 "C117" H 9400 2400 50  0000 L CNN
F 1 "10u" H 9415 2255 50  0000 L CNN
F 2 "Capacitor_SMD:C_0805_2012Metric" H 9338 2150 50  0001 C CNN
F 3 "~" H 9300 2300 50  0001 C CNN
	1    9300 2300
	1    0    0    -1  
$EndComp
$Comp
L Device:C C116
U 1 1 623E4F22
P 9150 3350
F 0 "C116" H 9200 3450 50  0000 L CNN
F 1 "10u" H 9250 3250 50  0000 L CNN
F 2 "Capacitor_SMD:C_0805_2012Metric" H 9188 3200 50  0001 C CNN
F 3 "~" H 9150 3350 50  0001 C CNN
	1    9150 3350
	1    0    0    -1  
$EndComp
$Comp
L Device:C C118
U 1 1 623E545D
P 9550 3350
F 0 "C118" H 9650 3450 50  0000 L CNN
F 1 "10u" H 9650 3250 50  0000 L CNN
F 2 "Capacitor_SMD:C_0805_2012Metric" H 9588 3200 50  0001 C CNN
F 3 "~" H 9550 3350 50  0001 C CNN
	1    9550 3350
	1    0    0    -1  
$EndComp
$Comp
L Device:C C120
U 1 1 623E58C8
P 9950 3350
F 0 "C120" H 10100 3350 50  0000 L CNN
F 1 "10u" H 10100 3250 50  0000 L CNN
F 2 "Capacitor_SMD:C_0805_2012Metric" H 9988 3200 50  0001 C CNN
F 3 "~" H 9950 3350 50  0001 C CNN
	1    9950 3350
	1    0    0    -1  
$EndComp
$Comp
L Device:C C119
U 1 1 623E5E30
P 9700 2300
F 0 "C119" H 9750 2400 50  0000 L CNN
F 1 "10u" H 9850 2250 50  0000 L CNN
F 2 "Capacitor_SMD:C_0805_2012Metric" H 9738 2150 50  0001 C CNN
F 3 "~" H 9700 2300 50  0001 C CNN
	1    9700 2300
	1    0    0    -1  
$EndComp
Wire Wire Line
	8100 2150 7850 2150
Wire Wire Line
	7750 2150 7750 2250
Connection ~ 7750 2150
Wire Wire Line
	8100 3200 7900 3200
Wire Wire Line
	7750 3200 7750 3250
Connection ~ 7750 3250
Wire Wire Line
	7750 3250 7750 3350
Wire Wire Line
	7750 3550 8350 3550
Wire Wire Line
	8350 3550 8350 3500
Wire Wire Line
	8350 3500 8400 3500
Connection ~ 8600 3500
Connection ~ 8400 3500
Wire Wire Line
	8400 3500 8600 3500
Wire Wire Line
	7750 2450 8400 2450
Connection ~ 8600 2450
Connection ~ 8400 2450
Wire Wire Line
	8400 2450 8600 2450
Wire Wire Line
	8400 2150 8600 2150
Connection ~ 8400 2150
Connection ~ 8600 2150
Wire Wire Line
	8600 2150 8950 2150
Wire Wire Line
	8950 2150 9300 2150
Connection ~ 8950 2150
Wire Wire Line
	8950 2450 8950 2750
Connection ~ 8950 2750
Wire Wire Line
	8400 3200 8600 3200
Connection ~ 8400 3200
Connection ~ 8600 3200
Connection ~ 9150 3200
Wire Wire Line
	9150 3200 9550 3200
Connection ~ 9550 3200
Wire Wire Line
	9550 3200 9950 3200
Connection ~ 9950 3200
Wire Wire Line
	9950 3200 10150 3200
$Comp
L Device:D_Schottky D10
U 1 1 62427C14
P 8000 2300
F 0 "D10" V 7950 2550 50  0000 L CNN
F 1 "SS14" V 8050 2550 50  0000 L CNN
F 2 "Diode_SMD:D_SMA" H 8000 2300 50  0001 C CNN
F 3 "~" H 8000 2300 50  0001 C CNN
	1    8000 2300
	1    0    0    -1  
$EndComp
$Comp
L Device:D_Schottky D11
U 1 1 62429000
P 8050 3400
F 0 "D11" H 7900 3700 50  0000 L CNN
F 1 "SS14" H 7700 3800 50  0000 L CNN
F 2 "Diode_SMD:D_SMA" H 8050 3400 50  0001 C CNN
F 3 "~" H 8050 3400 50  0001 C CNN
	1    8050 3400
	1    0    0    -1  
$EndComp
Wire Wire Line
	8200 3400 8200 3850
Connection ~ 8200 3850
Wire Wire Line
	8200 3850 8600 3850
Wire Wire Line
	7900 3400 7900 3200
Connection ~ 7900 3200
Wire Wire Line
	7900 3200 7750 3200
Wire Wire Line
	7850 2300 7850 2150
Connection ~ 7850 2150
Wire Wire Line
	7850 2150 7750 2150
Wire Wire Line
	8150 2300 8150 2750
Connection ~ 8150 2750
Wire Wire Line
	8150 2750 8600 2750
$Comp
L Device:R R71
U 1 1 6244A7C7
P 6450 2300
F 0 "R71" H 6500 1950 50  0000 R CNN
F 1 "3K" H 6500 2050 50  0000 R CNN
F 2 "Resistor_SMD:R_0603_1608Metric_Pad0.98x0.95mm_HandSolder" V 6380 2300 50  0001 C CNN
F 3 "~" H 6450 2300 50  0001 C CNN
	1    6450 2300
	-1   0    0    1   
$EndComp
Connection ~ 6450 2150
Wire Wire Line
	6450 2150 6800 2150
$Comp
L Device:C C111
U 1 1 6244B3D8
P 6200 2300
F 0 "C111" H 5850 2350 50  0000 L CNN
F 1 "100n" H 5900 2250 50  0000 L CNN
F 2 "Capacitor_SMD:C_0603_1608Metric" H 6238 2150 50  0001 C CNN
F 3 "~" H 6200 2300 50  0001 C CNN
	1    6200 2300
	1    0    0    -1  
$EndComp
Connection ~ 6200 2150
Wire Wire Line
	6200 2150 6450 2150
Wire Wire Line
	6800 2300 6700 2300
Wire Wire Line
	6700 2300 6700 2450
Wire Wire Line
	6700 2450 6450 2450
Connection ~ 6450 2450
Wire Wire Line
	6450 2450 6200 2450
$Comp
L Device:R R72
U 1 1 6245447D
P 6500 3400
F 0 "R72" H 6550 3050 50  0000 R CNN
F 1 "3K" H 6550 3150 50  0000 R CNN
F 2 "Resistor_SMD:R_0603_1608Metric_Pad0.98x0.95mm_HandSolder" V 6430 3400 50  0001 C CNN
F 3 "~" H 6500 3400 50  0001 C CNN
	1    6500 3400
	-1   0    0    1   
$EndComp
Connection ~ 6500 3250
Wire Wire Line
	6500 3250 6300 3250
$Comp
L Device:C C112
U 1 1 62454B11
P 6300 3400
F 0 "C112" H 5850 3500 50  0000 L CNN
F 1 "100n" H 5900 3400 50  0000 L CNN
F 2 "Capacitor_SMD:C_0603_1608Metric" H 6338 3250 50  0001 C CNN
F 3 "~" H 6300 3400 50  0001 C CNN
	1    6300 3400
	1    0    0    -1  
$EndComp
Connection ~ 6300 3250
Wire Wire Line
	6300 3250 6100 3250
Wire Wire Line
	6800 3400 6600 3400
Wire Wire Line
	6600 3400 6600 3550
Wire Wire Line
	6600 3550 6500 3550
Connection ~ 6500 3550
Wire Wire Line
	6500 3550 6300 3550
$Comp
L Device:R R69
U 1 1 6245EED6
P 6250 2750
F 0 "R69" H 6180 2704 50  0000 R CNN
F 1 "10K" H 6180 2795 50  0000 R CNN
F 2 "Resistor_SMD:R_0603_1608Metric_Pad0.98x0.95mm_HandSolder" V 6180 2750 50  0001 C CNN
F 3 "~" H 6250 2750 50  0001 C CNN
	1    6250 2750
	0    -1   -1   0   
$EndComp
Connection ~ 6100 2750
Wire Wire Line
	6100 2750 6100 2650
$Comp
L Device:R R70
U 1 1 6245F7FB
P 6250 3800
F 0 "R70" H 6180 3754 50  0000 R CNN
F 1 "10K" H 6180 3845 50  0000 R CNN
F 2 "Resistor_SMD:R_0603_1608Metric_Pad0.98x0.95mm_HandSolder" V 6180 3800 50  0001 C CNN
F 3 "~" H 6250 3800 50  0001 C CNN
	1    6250 3800
	0    -1   -1   0   
$EndComp
Connection ~ 6100 3800
Wire Wire Line
	6100 3800 6100 3250
Wire Wire Line
	6800 3550 6800 3800
Wire Wire Line
	6800 3800 6400 3800
Wire Wire Line
	6800 2450 6800 2750
Wire Wire Line
	6800 2750 6400 2750
$Comp
L Device:LED D12
U 1 1 62475A36
P 10300 2400
F 0 "D12" H 10300 2300 50  0000 C CNN
F 1 "LED" H 10300 2550 50  0000 C CNN
F 2 "" H 10300 2400 50  0001 C CNN
F 3 "~" H 10300 2400 50  0001 C CNN
	1    10300 2400
	-1   0    0    1   
$EndComp
$Comp
L Device:R R77
U 1 1 6248AD4D
P 10450 2600
F 0 "R77" H 10380 2554 50  0000 R CNN
F 1 "1K" H 10380 2645 50  0000 R CNN
F 2 "Resistor_SMD:R_0603_1608Metric_Pad0.98x0.95mm_HandSolder" V 10380 2600 50  0001 C CNN
F 3 "~" H 10450 2600 50  0001 C CNN
	1    10450 2600
	-1   0    0    1   
$EndComp
Wire Wire Line
	10150 2400 10050 2400
Wire Wire Line
	10050 2400 10050 2150
Connection ~ 10050 2150
Wire Wire Line
	10050 2150 10200 2150
Wire Wire Line
	10450 2400 10450 2450
Wire Wire Line
	10450 2750 9700 2750
$Comp
L power:+BATT #PWR0150
U 1 1 6224A163
P 4950 4150
F 0 "#PWR0150" H 4950 4000 50  0001 C CNN
F 1 "+BATT" H 4965 4323 50  0000 C CNN
F 2 "" H 4950 4150 50  0001 C CNN
F 3 "" H 4950 4150 50  0001 C CNN
	1    4950 4150
	1    0    0    -1  
$EndComp
Wire Wire Line
	4950 4150 4950 4200
$Comp
L power:-BATT #PWR0145
U 1 1 622EA322
P 3550 3350
F 0 "#PWR0145" H 3550 3200 50  0001 C CNN
F 1 "-BATT" H 3565 3523 50  0000 C CNN
F 2 "" H 3550 3350 50  0001 C CNN
F 3 "" H 3550 3350 50  0001 C CNN
	1    3550 3350
	-1   0    0    1   
$EndComp
$Comp
L power:+BATT #PWR0144
U 1 1 622EBC2B
P 3550 2650
F 0 "#PWR0144" H 3550 2500 50  0001 C CNN
F 1 "+BATT" H 3565 2823 50  0000 C CNN
F 2 "" H 3550 2650 50  0001 C CNN
F 3 "" H 3550 2650 50  0001 C CNN
	1    3550 2650
	1    0    0    -1  
$EndComp
Connection ~ 3550 2650
$Comp
L power:-BATT #PWR0146
U 1 1 62319B73
P 3600 1550
F 0 "#PWR0146" H 3600 1400 50  0001 C CNN
F 1 "-BATT" H 3615 1723 50  0000 C CNN
F 2 "" H 3600 1550 50  0001 C CNN
F 3 "" H 3600 1550 50  0001 C CNN
	1    3600 1550
	-1   0    0    1   
$EndComp
Connection ~ 3600 1550
Wire Wire Line
	3600 1550 3750 1550
$Comp
L power:-BATT #PWR0149
U 1 1 62459AA5
P 4250 5400
F 0 "#PWR0149" H 4250 5250 50  0001 C CNN
F 1 "-BATT" H 4265 5573 50  0000 C CNN
F 2 "" H 4250 5400 50  0001 C CNN
F 3 "" H 4250 5400 50  0001 C CNN
	1    4250 5400
	-1   0    0    1   
$EndComp
Wire Wire Line
	6100 3800 6100 4200
$Comp
L power:-BATT #PWR0152
U 1 1 62773F41
P 7350 3850
F 0 "#PWR0152" H 7350 3700 50  0001 C CNN
F 1 "-BATT" H 7365 4023 50  0000 C CNN
F 2 "" H 7350 3850 50  0001 C CNN
F 3 "" H 7350 3850 50  0001 C CNN
	1    7350 3850
	-1   0    0    1   
$EndComp
$Comp
L power:-BATT #PWR0151
U 1 1 627AD666
P 7350 2750
F 0 "#PWR0151" H 7350 2600 50  0001 C CNN
F 1 "-BATT" H 7365 2923 50  0000 C CNN
F 2 "" H 7350 2750 50  0001 C CNN
F 3 "" H 7350 2750 50  0001 C CNN
	1    7350 2750
	-1   0    0    1   
$EndComp
Wire Wire Line
	9700 2150 10050 2150
Wire Wire Line
	9700 2150 9300 2150
Connection ~ 9700 2150
Connection ~ 9300 2150
Wire Wire Line
	9300 2450 9300 2750
Connection ~ 9300 2750
Wire Wire Line
	9300 2750 8950 2750
Wire Wire Line
	9700 2450 9700 2750
Connection ~ 9700 2750
Wire Wire Line
	9700 2750 9300 2750
Wire Wire Line
	8600 3200 9150 3200
Wire Wire Line
	9950 3850 9950 3500
Wire Wire Line
	9550 3500 9550 3850
Connection ~ 9550 3850
Wire Wire Line
	9550 3850 9950 3850
Wire Wire Line
	8600 3850 9150 3850
Wire Wire Line
	9150 3850 9550 3850
Connection ~ 9150 3850
Wire Wire Line
	9150 3500 9150 3850
$Comp
L Device:Q_DUAL_PMOS_S1G1S2G2D2D2D1D1 Q17
U 1 1 62720124
P 4000 1000
F 0 "Q17" H 4288 1046 50  0000 L CNN
F 1 "SI9933" H 4288 955 50  0000 L CNN
F 2 "Package_SO:SO-8_3.9x4.9mm_P1.27mm" H 4050 1000 50  0001 C CNN
F 3 "~" H 4050 1000 50  0001 C CNN
	1    4000 1000
	1    0    0    -1  
$EndComp
$Comp
L Device:Q_DUAL_PMOS_S1G1S2G2D2D2D1D1 Q17
U 2 1 62721051
P 4000 1850
F 0 "Q17" H 4288 1804 50  0000 L CNN
F 1 "SI9933" H 4288 1895 50  0000 L CNN
F 2 "Package_SO:SO-8_3.9x4.9mm_P1.27mm" H 4050 1850 50  0001 C CNN
F 3 "~" H 4050 1850 50  0001 C CNN
	2    4000 1850
	1    0    0    1   
$EndComp
Wire Wire Line
	4200 2050 4600 2050
Wire Wire Line
	4200 2050 4100 2050
Connection ~ 4200 2050
Connection ~ 4100 2050
Connection ~ 4100 1200
Wire Wire Line
	4100 800  4200 800 
Connection ~ 4100 800 
Wire Wire Line
	4050 5400 4250 5400
Connection ~ 4250 5400
Wire Wire Line
	4950 4200 5350 4200
Wire Wire Line
	5850 5400 6300 5400
Wire Wire Line
	5850 4500 5850 4700
Wire Wire Line
	4050 4700 5850 4700
Wire Wire Line
	5250 5400 5450 5400
Connection ~ 5250 5400
Wire Wire Line
	5250 5100 5000 5100
Connection ~ 5250 5100
$Comp
L Device:C C51
U 1 1 629A443E
P 5250 5250
F 0 "C51" H 5000 5300 50  0000 L CNN
F 1 "1u" H 5050 5250 50  0000 L CNN
F 2 "Capacitor_SMD:C_0805_2012Metric" H 5288 5100 50  0001 C CNN
F 3 "~" H 5250 5250 50  0001 C CNN
	1    5250 5250
	1    0    0    -1  
$EndComp
Wire Wire Line
	5450 5100 5250 5100
Connection ~ 5450 5100
Wire Wire Line
	5550 5100 5450 5100
Wire Wire Line
	5450 5400 5850 5400
Connection ~ 5450 5400
$Comp
L Device:R R63
U 1 1 62985A1A
P 5450 5250
F 0 "R63" H 5380 5204 50  0000 R CNN
F 1 "1M" H 5380 5295 50  0000 R CNN
F 2 "Resistor_SMD:R_0603_1608Metric_Pad0.98x0.95mm_HandSolder" V 5380 5250 50  0001 C CNN
F 3 "~" H 5450 5250 50  0001 C CNN
	1    5450 5250
	-1   0    0    1   
$EndComp
Wire Wire Line
	4250 5400 5250 5400
$Comp
L Device:R R62
U 1 1 629C224B
P 4850 5100
F 0 "R62" H 4780 5054 50  0000 R CNN
F 1 "100K" H 4780 5145 50  0000 R CNN
F 2 "Resistor_SMD:R_0603_1608Metric_Pad0.98x0.95mm_HandSolder" V 4780 5100 50  0001 C CNN
F 3 "~" H 4850 5100 50  0001 C CNN
	1    4850 5100
	0    -1   -1   0   
$EndComp
Wire Wire Line
	4700 5100 4550 5100
Text HLabel 4550 5100 0    50   Input ~ 0
POWER_HOLD
$Comp
L Device:C C56
U 1 1 62A900E9
P 5950 2150
F 0 "C56" H 6000 2250 50  0000 L CNN
F 1 "10u" H 6050 2050 50  0000 L CNN
F 2 "Capacitor_SMD:C_0805_2012Metric" H 5988 2000 50  0001 C CNN
F 3 "~" H 5950 2150 50  0001 C CNN
	1    5950 2150
	0    1    1    0   
$EndComp
Connection ~ 6100 2150
$Comp
L Device:C C57
U 1 1 62A90BFD
P 5950 2400
F 0 "C57" H 6000 2500 50  0000 L CNN
F 1 "10u" H 6050 2300 50  0000 L CNN
F 2 "Capacitor_SMD:C_0805_2012Metric" H 5988 2250 50  0001 C CNN
F 3 "~" H 5950 2400 50  0001 C CNN
	1    5950 2400
	0    1    1    0   
$EndComp
Connection ~ 6100 2400
Wire Wire Line
	6100 2400 6100 2150
$Comp
L Device:C C58
U 1 1 62A91105
P 5950 2650
F 0 "C58" H 6000 2750 50  0000 L CNN
F 1 "10u" H 6050 2550 50  0000 L CNN
F 2 "Capacitor_SMD:C_0805_2012Metric" H 5988 2500 50  0001 C CNN
F 3 "~" H 5950 2650 50  0001 C CNN
	1    5950 2650
	0    1    1    0   
$EndComp
Connection ~ 6100 2650
Wire Wire Line
	6100 2650 6100 2400
$Comp
L Device:C C99
U 1 1 62A919F1
P 5950 2900
F 0 "C99" H 6000 3000 50  0000 L CNN
F 1 "10u" H 6050 2800 50  0000 L CNN
F 2 "Capacitor_SMD:C_0805_2012Metric" H 5988 2750 50  0001 C CNN
F 3 "~" H 5950 2900 50  0001 C CNN
	1    5950 2900
	0    1    1    0   
$EndComp
Connection ~ 6100 2900
Wire Wire Line
	6100 2900 6100 2750
$Comp
L power:-BATT #PWR0142
U 1 1 62A9233D
P 5800 3050
F 0 "#PWR0142" H 5800 2900 50  0001 C CNN
F 1 "-BATT" H 5815 3223 50  0000 C CNN
F 2 "" H 5800 3050 50  0001 C CNN
F 3 "" H 5800 3050 50  0001 C CNN
	1    5800 3050
	-1   0    0    1   
$EndComp
Wire Wire Line
	5800 2150 5800 2400
Connection ~ 5800 2400
Wire Wire Line
	5800 2400 5800 2650
Connection ~ 5800 2650
Wire Wire Line
	5800 2650 5800 2900
Connection ~ 5800 2900
Wire Wire Line
	5800 2900 5800 3050
$Comp
L byDave:Battery_Cell_dual BT1
U 1 1 62372FE4
P 4350 3100
F 0 "BT1" H 4468 3196 50  0000 L CNN
F 1 "Battery_Cell_dual" H 4468 3105 50  0000 L CNN
F 2 "Mylibs:12BHC186P-GR" V 4350 3160 50  0001 C CNN
F 3 "~" V 4350 3160 50  0001 C CNN
	1    4350 3100
	1    0    0    -1  
$EndComp
Wire Wire Line
	3800 3350 4350 3350
Wire Wire Line
	4350 3200 4350 3350
Connection ~ 4350 3350
Wire Wire Line
	4350 3350 4600 3350
Wire Wire Line
	4350 2900 4250 2900
Wire Wire Line
	4250 2900 4250 3200
Wire Wire Line
	4250 3200 4100 3200
Wire Wire Line
	4100 2650 4100 2900
$EndSCHEMATC
