(kicad_sch (version 20211123) (generator eeschema)

  (uuid b4a4f650-13d5-4720-ac35-ff4e3630c611)

  (paper "A4")

  (lib_symbols
    (symbol "74xGxx:SN74LVC1G14DBV" (in_bom yes) (on_board yes)
      (property "Reference" "U" (id 0) (at -2.54 5.08 0)
        (effects (font (size 1.27 1.27)))
      )
      (property "Value" "SN74LVC1G14DBV" (id 1) (at 10.16 5.08 0)
        (effects (font (size 1.27 1.27)))
      )
      (property "Footprint" "Package_TO_SOT_SMD:SOT-23-5" (id 2) (at 0 -6.35 0)
        (effects (font (size 1.27 1.27)) hide)
      )
      (property "Datasheet" "http://www.ti.com/lit/ds/symlink/sn74lvc1g14.pdf" (id 3) (at 0 0 0)
        (effects (font (size 1.27 1.27)) hide)
      )
      (property "ki_keywords" "Inverter Schmitt Trigger" (id 4) (at 0 0 0)
        (effects (font (size 1.27 1.27)) hide)
      )
      (property "ki_description" "Single Schmitt-Trigger Inverter, SOT-23" (id 5) (at 0 0 0)
        (effects (font (size 1.27 1.27)) hide)
      )
      (property "ki_fp_filters" "SOT?23*" (id 6) (at 0 0 0)
        (effects (font (size 1.27 1.27)) hide)
      )
      (symbol "SN74LVC1G14DBV_0_1"
        (polyline
          (pts
            (xy -1.016 0.508)
            (xy -0.508 0.508)
          )
          (stroke (width 0) (type default) (color 0 0 0 0))
          (fill (type none))
        )
        (polyline
          (pts
            (xy -2.54 3.81)
            (xy -2.54 -3.81)
            (xy 5.08 0)
            (xy -2.54 3.81)
          )
          (stroke (width 0.254) (type default) (color 0 0 0 0))
          (fill (type background))
        )
        (polyline
          (pts
            (xy -1.524 -0.508)
            (xy -1.524 0.508)
            (xy -1.016 0.508)
            (xy -1.016 -0.508)
            (xy -2.032 -0.508)
          )
          (stroke (width 0) (type default) (color 0 0 0 0))
          (fill (type none))
        )
        (circle (center 5.715 0) (radius 0.635)
          (stroke (width 0) (type default) (color 0 0 0 0))
          (fill (type none))
        )
      )
      (symbol "SN74LVC1G14DBV_1_1"
        (pin no_connect line (at 5.08 0 180) (length 2.54) hide
          (name "NC" (effects (font (size 1.27 1.27))))
          (number "1" (effects (font (size 1.27 1.27))))
        )
        (pin input line (at -5.08 0 0) (length 2.54)
          (name "~" (effects (font (size 1.27 1.27))))
          (number "2" (effects (font (size 1.27 1.27))))
        )
        (pin power_in line (at 0 -5.08 90) (length 2.54)
          (name "GND" (effects (font (size 0.508 0.508))))
          (number "3" (effects (font (size 0.762 0.762))))
        )
        (pin output line (at 7.62 0 180) (length 1.27)
          (name "~" (effects (font (size 1.27 1.27))))
          (number "4" (effects (font (size 1.27 1.27))))
        )
        (pin power_in line (at 0 5.08 270) (length 2.54)
          (name "VCC" (effects (font (size 0.508 0.508))))
          (number "5" (effects (font (size 0.762 0.762))))
        )
      )
    )
    (symbol "Connector:6P6C" (pin_names (offset 1.016)) (in_bom yes) (on_board yes)
      (property "Reference" "J" (id 0) (at -5.08 11.43 0)
        (effects (font (size 1.27 1.27)) (justify right))
      )
      (property "Value" "6P6C" (id 1) (at 2.54 11.43 0)
        (effects (font (size 1.27 1.27)) (justify left))
      )
      (property "Footprint" "" (id 2) (at 0 0.635 90)
        (effects (font (size 1.27 1.27)) hide)
      )
      (property "Datasheet" "~" (id 3) (at 0 0.635 90)
        (effects (font (size 1.27 1.27)) hide)
      )
      (property "ki_keywords" "6P6C RJ female connector" (id 4) (at 0 0 0)
        (effects (font (size 1.27 1.27)) hide)
      )
      (property "ki_description" "RJ connector, 6P6C (6 positions 6 connected), RJ12/RJ18/RJ25" (id 5) (at 0 0 0)
        (effects (font (size 1.27 1.27)) hide)
      )
      (property "ki_fp_filters" "6P6C* RJ12* RJ18* RJ25*" (id 6) (at 0 0 0)
        (effects (font (size 1.27 1.27)) hide)
      )
      (symbol "6P6C_0_1"
        (polyline
          (pts
            (xy -6.35 -1.905)
            (xy -5.08 -1.905)
            (xy -5.08 -1.905)
          )
          (stroke (width 0) (type default) (color 0 0 0 0))
          (fill (type none))
        )
        (polyline
          (pts
            (xy -6.35 -0.635)
            (xy -5.08 -0.635)
            (xy -5.08 -0.635)
          )
          (stroke (width 0) (type default) (color 0 0 0 0))
          (fill (type none))
        )
        (polyline
          (pts
            (xy -6.35 0.635)
            (xy -5.08 0.635)
            (xy -5.08 0.635)
          )
          (stroke (width 0) (type default) (color 0 0 0 0))
          (fill (type none))
        )
        (polyline
          (pts
            (xy -6.35 1.905)
            (xy -5.08 1.905)
            (xy -5.08 1.905)
          )
          (stroke (width 0) (type default) (color 0 0 0 0))
          (fill (type none))
        )
        (polyline
          (pts
            (xy -6.35 3.175)
            (xy -5.08 3.175)
            (xy -5.08 3.175)
          )
          (stroke (width 0) (type default) (color 0 0 0 0))
          (fill (type none))
        )
        (polyline
          (pts
            (xy -5.08 4.445)
            (xy -6.35 4.445)
            (xy -6.35 4.445)
          )
          (stroke (width 0) (type default) (color 0 0 0 0))
          (fill (type none))
        )
        (polyline
          (pts
            (xy -6.35 -4.445)
            (xy -6.35 6.985)
            (xy 3.81 6.985)
            (xy 3.81 4.445)
            (xy 5.08 4.445)
            (xy 5.08 3.175)
            (xy 6.35 3.175)
            (xy 6.35 -0.635)
            (xy 5.08 -0.635)
            (xy 5.08 -1.905)
            (xy 3.81 -1.905)
            (xy 3.81 -4.445)
            (xy -6.35 -4.445)
            (xy -6.35 -4.445)
          )
          (stroke (width 0) (type default) (color 0 0 0 0))
          (fill (type none))
        )
        (rectangle (start 7.62 10.16) (end -7.62 -7.62)
          (stroke (width 0.254) (type default) (color 0 0 0 0))
          (fill (type background))
        )
      )
      (symbol "6P6C_1_1"
        (pin passive line (at 10.16 -5.08 180) (length 2.54)
          (name "~" (effects (font (size 1.27 1.27))))
          (number "1" (effects (font (size 1.27 1.27))))
        )
        (pin passive line (at 10.16 -2.54 180) (length 2.54)
          (name "~" (effects (font (size 1.27 1.27))))
          (number "2" (effects (font (size 1.27 1.27))))
        )
        (pin passive line (at 10.16 0 180) (length 2.54)
          (name "~" (effects (font (size 1.27 1.27))))
          (number "3" (effects (font (size 1.27 1.27))))
        )
        (pin passive line (at 10.16 2.54 180) (length 2.54)
          (name "~" (effects (font (size 1.27 1.27))))
          (number "4" (effects (font (size 1.27 1.27))))
        )
        (pin passive line (at 10.16 5.08 180) (length 2.54)
          (name "~" (effects (font (size 1.27 1.27))))
          (number "5" (effects (font (size 1.27 1.27))))
        )
        (pin passive line (at 10.16 7.62 180) (length 2.54)
          (name "~" (effects (font (size 1.27 1.27))))
          (number "6" (effects (font (size 1.27 1.27))))
        )
      )
    )
    (symbol "Device:C" (pin_numbers hide) (pin_names (offset 0.254)) (in_bom yes) (on_board yes)
      (property "Reference" "C" (id 0) (at 0.635 2.54 0)
        (effects (font (size 1.27 1.27)) (justify left))
      )
      (property "Value" "C" (id 1) (at 0.635 -2.54 0)
        (effects (font (size 1.27 1.27)) (justify left))
      )
      (property "Footprint" "" (id 2) (at 0.9652 -3.81 0)
        (effects (font (size 1.27 1.27)) hide)
      )
      (property "Datasheet" "~" (id 3) (at 0 0 0)
        (effects (font (size 1.27 1.27)) hide)
      )
      (property "ki_keywords" "cap capacitor" (id 4) (at 0 0 0)
        (effects (font (size 1.27 1.27)) hide)
      )
      (property "ki_description" "Unpolarized capacitor" (id 5) (at 0 0 0)
        (effects (font (size 1.27 1.27)) hide)
      )
      (property "ki_fp_filters" "C_*" (id 6) (at 0 0 0)
        (effects (font (size 1.27 1.27)) hide)
      )
      (symbol "C_0_1"
        (polyline
          (pts
            (xy -2.032 -0.762)
            (xy 2.032 -0.762)
          )
          (stroke (width 0.508) (type default) (color 0 0 0 0))
          (fill (type none))
        )
        (polyline
          (pts
            (xy -2.032 0.762)
            (xy 2.032 0.762)
          )
          (stroke (width 0.508) (type default) (color 0 0 0 0))
          (fill (type none))
        )
      )
      (symbol "C_1_1"
        (pin passive line (at 0 3.81 270) (length 2.794)
          (name "~" (effects (font (size 1.27 1.27))))
          (number "1" (effects (font (size 1.27 1.27))))
        )
        (pin passive line (at 0 -3.81 90) (length 2.794)
          (name "~" (effects (font (size 1.27 1.27))))
          (number "2" (effects (font (size 1.27 1.27))))
        )
      )
    )
    (symbol "Device:D_Dual_Series_AKC" (pin_names (offset 0.762) hide) (in_bom yes) (on_board yes)
      (property "Reference" "D" (id 0) (at 1.27 -2.54 0)
        (effects (font (size 1.27 1.27)))
      )
      (property "Value" "D_Dual_Series_AKC" (id 1) (at 0 2.54 0)
        (effects (font (size 1.27 1.27)))
      )
      (property "Footprint" "" (id 2) (at 0 0 0)
        (effects (font (size 1.27 1.27)) hide)
      )
      (property "Datasheet" "~" (id 3) (at 0 0 0)
        (effects (font (size 1.27 1.27)) hide)
      )
      (property "ki_keywords" "diode" (id 4) (at 0 0 0)
        (effects (font (size 1.27 1.27)) hide)
      )
      (property "ki_description" "Dual diode, anode/cathode/center" (id 5) (at 0 0 0)
        (effects (font (size 1.27 1.27)) hide)
      )
      (symbol "D_Dual_Series_AKC_0_1"
        (polyline
          (pts
            (xy -3.81 0)
            (xy 3.81 0)
          )
          (stroke (width 0) (type default) (color 0 0 0 0))
          (fill (type none))
        )
        (polyline
          (pts
            (xy 0 0)
            (xy 0 -2.54)
          )
          (stroke (width 0) (type default) (color 0 0 0 0))
          (fill (type none))
        )
        (polyline
          (pts
            (xy 6.35 0)
            (xy 7.62 0)
          )
          (stroke (width 0) (type default) (color 0 0 0 0))
          (fill (type none))
        )
        (polyline
          (pts
            (xy -1.27 -1.27)
            (xy -1.27 1.27)
            (xy -1.27 1.27)
          )
          (stroke (width 0.254) (type default) (color 0 0 0 0))
          (fill (type none))
        )
        (polyline
          (pts
            (xy 3.81 1.27)
            (xy 3.81 -1.27)
            (xy 3.81 -1.27)
          )
          (stroke (width 0.254) (type default) (color 0 0 0 0))
          (fill (type none))
        )
        (polyline
          (pts
            (xy -3.81 1.27)
            (xy -1.27 0)
            (xy -3.81 -1.27)
            (xy -3.81 1.27)
            (xy -3.81 1.27)
            (xy -3.81 1.27)
          )
          (stroke (width 0.254) (type default) (color 0 0 0 0))
          (fill (type none))
        )
        (polyline
          (pts
            (xy 1.27 1.27)
            (xy 3.81 0)
            (xy 1.27 -1.27)
            (xy 1.27 1.27)
            (xy 1.27 1.27)
            (xy 1.27 1.27)
          )
          (stroke (width 0.254) (type default) (color 0 0 0 0))
          (fill (type none))
        )
        (circle (center 0 0) (radius 0.254)
          (stroke (width 0) (type default) (color 0 0 0 0))
          (fill (type outline))
        )
        (pin passive line (at -7.62 0 0) (length 3.81)
          (name "A" (effects (font (size 1.27 1.27))))
          (number "1" (effects (font (size 1.27 1.27))))
        )
        (pin passive line (at 7.62 0 180) (length 3.81)
          (name "K" (effects (font (size 1.27 1.27))))
          (number "2" (effects (font (size 1.27 1.27))))
        )
        (pin passive line (at 0 -5.08 90) (length 2.54)
          (name "common" (effects (font (size 1.27 1.27))))
          (number "3" (effects (font (size 1.27 1.27))))
        )
      )
    )
    (symbol "Device:R" (pin_numbers hide) (pin_names (offset 0)) (in_bom yes) (on_board yes)
      (property "Reference" "R" (id 0) (at 2.032 0 90)
        (effects (font (size 1.27 1.27)))
      )
      (property "Value" "R" (id 1) (at 0 0 90)
        (effects (font (size 1.27 1.27)))
      )
      (property "Footprint" "" (id 2) (at -1.778 0 90)
        (effects (font (size 1.27 1.27)) hide)
      )
      (property "Datasheet" "~" (id 3) (at 0 0 0)
        (effects (font (size 1.27 1.27)) hide)
      )
      (property "ki_keywords" "R res resistor" (id 4) (at 0 0 0)
        (effects (font (size 1.27 1.27)) hide)
      )
      (property "ki_description" "Resistor" (id 5) (at 0 0 0)
        (effects (font (size 1.27 1.27)) hide)
      )
      (property "ki_fp_filters" "R_*" (id 6) (at 0 0 0)
        (effects (font (size 1.27 1.27)) hide)
      )
      (symbol "R_0_1"
        (rectangle (start -1.016 -2.54) (end 1.016 2.54)
          (stroke (width 0.254) (type default) (color 0 0 0 0))
          (fill (type none))
        )
      )
      (symbol "R_1_1"
        (pin passive line (at 0 3.81 270) (length 1.27)
          (name "~" (effects (font (size 1.27 1.27))))
          (number "1" (effects (font (size 1.27 1.27))))
        )
        (pin passive line (at 0 -3.81 90) (length 1.27)
          (name "~" (effects (font (size 1.27 1.27))))
          (number "2" (effects (font (size 1.27 1.27))))
        )
      )
    )
  )

  (junction (at 82.55 80.01) (diameter 0) (color 0 0 0 0)
    (uuid 0d6007ad-394c-44ab-93d3-784e69214bbc)
  )
  (junction (at 149.86 106.68) (diameter 0) (color 0 0 0 0)
    (uuid 149746ef-cda5-473a-99c4-205bf29b4cfc)
  )
  (junction (at 102.87 106.68) (diameter 0) (color 0 0 0 0)
    (uuid 25f36781-2a4e-4b64-9928-a2e50b6ebda0)
  )
  (junction (at 91.44 106.68) (diameter 0) (color 0 0 0 0)
    (uuid 31008275-0c54-487a-9996-284aa1443935)
  )
  (junction (at 130.81 63.5) (diameter 0) (color 0 0 0 0)
    (uuid 4f93b955-6d26-48f7-81fb-2322a948eb33)
  )
  (junction (at 81.28 63.5) (diameter 0) (color 0 0 0 0)
    (uuid 52ca38ec-3434-4ce3-b48d-d0bb68a381a8)
  )
  (junction (at 107.95 106.68) (diameter 0) (color 0 0 0 0)
    (uuid 66a1d387-1486-40ba-8c47-b30035ce31ee)
  )
  (junction (at 102.87 63.5) (diameter 0) (color 0 0 0 0)
    (uuid 7672519c-2bdf-428d-996d-1e0a850ff4aa)
  )
  (junction (at 107.95 92.71) (diameter 0) (color 0 0 0 0)
    (uuid a1987deb-5153-4f38-9ea8-d65bff6b942e)
  )
  (junction (at 138.43 106.68) (diameter 0) (color 0 0 0 0)
    (uuid a3e8f47c-8277-4a94-ae6e-f999aca23821)
  )
  (junction (at 91.44 63.5) (diameter 0) (color 0 0 0 0)
    (uuid a9d1632f-720f-443d-a692-1ee7321d3ff7)
  )
  (junction (at 153.67 99.06) (diameter 0) (color 0 0 0 0)
    (uuid b2777baf-dd32-47b5-bbe8-3fbdc1ea28b5)
  )
  (junction (at 130.81 109.22) (diameter 0) (color 0 0 0 0)
    (uuid b3c98325-d9bd-44e0-9652-87d790b90163)
  )
  (junction (at 116.84 106.68) (diameter 0) (color 0 0 0 0)
    (uuid b779e936-dfd5-486a-9a5d-569eea3d673a)
  )
  (junction (at 91.44 87.63) (diameter 0) (color 0 0 0 0)
    (uuid c94cd90a-c16e-48d6-82d3-21d7f41193b6)
  )
  (junction (at 91.44 80.01) (diameter 0) (color 0 0 0 0)
    (uuid e1b65db9-eac9-4215-9b38-0c35bee32c17)
  )
  (junction (at 144.78 58.42) (diameter 0) (color 0 0 0 0)
    (uuid e3b16b79-154a-47c7-b8d0-c7b800fe591b)
  )
  (junction (at 116.84 92.71) (diameter 0) (color 0 0 0 0)
    (uuid e3d681c6-4e60-404d-97dc-bfce7fb9bb36)
  )
  (junction (at 144.78 106.68) (diameter 0) (color 0 0 0 0)
    (uuid ebee3290-016c-4ca9-8c94-2973486db3d2)
  )
  (junction (at 144.78 39.37) (diameter 0) (color 0 0 0 0)
    (uuid f0aa4fa8-1af8-4c68-b584-bccddee4ba9b)
  )

  (wire (pts (xy 160.02 63.5) (xy 160.02 87.63))
    (stroke (width 0) (type default) (color 0 0 0 0))
    (uuid 039841a4-3009-4ef4-8250-04a906ccc282)
  )
  (wire (pts (xy 91.44 72.39) (xy 91.44 63.5))
    (stroke (width 0) (type default) (color 0 0 0 0))
    (uuid 03edc0c2-e6ba-4f4d-8cc9-bee7a8eaae68)
  )
  (wire (pts (xy 90.17 80.01) (xy 91.44 80.01))
    (stroke (width 0) (type default) (color 0 0 0 0))
    (uuid 0616814c-96cb-4ae7-9ef6-3664da24b85f)
  )
  (wire (pts (xy 153.67 39.37) (xy 153.67 58.42))
    (stroke (width 0) (type default) (color 0 0 0 0))
    (uuid 07821017-ba1f-4df0-89e5-11c1f92f14fc)
  )
  (wire (pts (xy 149.86 125.73) (xy 149.86 106.68))
    (stroke (width 0) (type default) (color 0 0 0 0))
    (uuid 081f506d-0874-49be-a93a-19065b28604f)
  )
  (wire (pts (xy 107.95 100.33) (xy 107.95 106.68))
    (stroke (width 0) (type default) (color 0 0 0 0))
    (uuid 0b834926-aa2d-4538-a64a-da62bf1df82d)
  )
  (wire (pts (xy 107.95 82.55) (xy 107.95 85.09))
    (stroke (width 0) (type default) (color 0 0 0 0))
    (uuid 111d8abd-4a3f-4e3a-b383-072f322ce735)
  )
  (wire (pts (xy 130.81 125.73) (xy 149.86 125.73))
    (stroke (width 0) (type default) (color 0 0 0 0))
    (uuid 1237fc88-d43e-4278-b8fb-7a8ab5330238)
  )
  (wire (pts (xy 91.44 106.68) (xy 102.87 106.68))
    (stroke (width 0) (type default) (color 0 0 0 0))
    (uuid 1499ecea-3a1e-4c6d-b19a-52684e71b8ad)
  )
  (wire (pts (xy 77.47 106.68) (xy 91.44 106.68))
    (stroke (width 0) (type default) (color 0 0 0 0))
    (uuid 1708eba3-1ea8-4211-994a-e923dd29c17f)
  )
  (wire (pts (xy 127 52.07) (xy 127 82.55))
    (stroke (width 0) (type default) (color 0 0 0 0))
    (uuid 1dedc666-3c97-4e8f-a5ca-633b51545617)
  )
  (wire (pts (xy 144.78 35.56) (xy 144.78 39.37))
    (stroke (width 0) (type default) (color 0 0 0 0))
    (uuid 231dcfea-fcd8-4c0f-9316-dc78a35752b2)
  )
  (wire (pts (xy 153.67 90.17) (xy 163.83 90.17))
    (stroke (width 0) (type default) (color 0 0 0 0))
    (uuid 289fcbde-9667-4a43-a809-778539d663b2)
  )
  (wire (pts (xy 116.84 90.17) (xy 116.84 92.71))
    (stroke (width 0) (type default) (color 0 0 0 0))
    (uuid 28ee2efb-cafa-4234-bc97-75a560ad0e7e)
  )
  (wire (pts (xy 153.67 99.06) (xy 153.67 90.17))
    (stroke (width 0) (type default) (color 0 0 0 0))
    (uuid 296e1e24-3f6a-4dae-9ff9-78b23bf4b97e)
  )
  (wire (pts (xy 116.84 96.52) (xy 116.84 92.71))
    (stroke (width 0) (type default) (color 0 0 0 0))
    (uuid 2a17d015-6b51-4059-afeb-50106d1a0fd1)
  )
  (wire (pts (xy 81.28 63.5) (xy 91.44 63.5))
    (stroke (width 0) (type default) (color 0 0 0 0))
    (uuid 2bee53a6-5c05-40e4-913b-99cfa5610829)
  )
  (wire (pts (xy 102.87 63.5) (xy 130.81 63.5))
    (stroke (width 0) (type default) (color 0 0 0 0))
    (uuid 34f09ac3-9c83-4a59-8d60-4a22e42052dc)
  )
  (wire (pts (xy 102.87 85.09) (xy 102.87 63.5))
    (stroke (width 0) (type default) (color 0 0 0 0))
    (uuid 367dd382-f55d-4104-bcb1-4bd31141feb2)
  )
  (wire (pts (xy 77.47 63.5) (xy 81.28 63.5))
    (stroke (width 0) (type default) (color 0 0 0 0))
    (uuid 44629ded-013f-4943-b0a8-c6a3ff1fc25f)
  )
  (wire (pts (xy 139.7 52.07) (xy 127 52.07))
    (stroke (width 0) (type default) (color 0 0 0 0))
    (uuid 45ea3415-2743-4f6c-b122-d870a093259d)
  )
  (wire (pts (xy 72.39 80.01) (xy 73.66 80.01))
    (stroke (width 0) (type default) (color 0 0 0 0))
    (uuid 4c0507b6-fc19-4ae9-8cf4-7af95c690211)
  )
  (wire (pts (xy 130.81 115.57) (xy 130.81 109.22))
    (stroke (width 0) (type default) (color 0 0 0 0))
    (uuid 4de9362a-87ec-4908-8062-8a6f9bd6a454)
  )
  (wire (pts (xy 91.44 63.5) (xy 102.87 63.5))
    (stroke (width 0) (type default) (color 0 0 0 0))
    (uuid 4e44828c-b473-454a-90c0-310fcbcdc44a)
  )
  (wire (pts (xy 91.44 80.01) (xy 163.83 80.01))
    (stroke (width 0) (type default) (color 0 0 0 0))
    (uuid 4fd6eb96-211f-4815-887f-0584166ab811)
  )
  (wire (pts (xy 144.78 39.37) (xy 144.78 46.99))
    (stroke (width 0) (type default) (color 0 0 0 0))
    (uuid 513ccc1c-3158-4564-bf28-2b4ff4219b00)
  )
  (wire (pts (xy 153.67 58.42) (xy 144.78 58.42))
    (stroke (width 0) (type default) (color 0 0 0 0))
    (uuid 596ff0ef-ad32-491d-adb9-7689bd9ed950)
  )
  (wire (pts (xy 144.78 58.42) (xy 144.78 106.68))
    (stroke (width 0) (type default) (color 0 0 0 0))
    (uuid 6825b4a5-b54f-4a7c-9480-17918d82fcdd)
  )
  (wire (pts (xy 116.84 104.14) (xy 116.84 106.68))
    (stroke (width 0) (type default) (color 0 0 0 0))
    (uuid 6ad8da60-ba27-4c9f-a5e4-fd61e7878926)
  )
  (wire (pts (xy 152.4 63.5) (xy 160.02 63.5))
    (stroke (width 0) (type default) (color 0 0 0 0))
    (uuid 6c84d6c1-f368-413e-a5f6-1fb886e2d87e)
  )
  (wire (pts (xy 142.24 90.17) (xy 116.84 90.17))
    (stroke (width 0) (type default) (color 0 0 0 0))
    (uuid 6ea680ee-a56e-4e47-95c6-95194de8db86)
  )
  (wire (pts (xy 163.83 87.63) (xy 160.02 87.63))
    (stroke (width 0) (type default) (color 0 0 0 0))
    (uuid 6f228517-0e3c-4160-ab1d-8ede6a9a7a63)
  )
  (wire (pts (xy 62.23 87.63) (xy 62.23 68.58))
    (stroke (width 0) (type default) (color 0 0 0 0))
    (uuid 7084d341-ab67-4b0f-91aa-10c11d93a254)
  )
  (wire (pts (xy 130.81 109.22) (xy 130.81 63.5))
    (stroke (width 0) (type default) (color 0 0 0 0))
    (uuid 711debc4-9905-4aa6-9606-5d83614bfb23)
  )
  (wire (pts (xy 142.24 92.71) (xy 142.24 90.17))
    (stroke (width 0) (type default) (color 0 0 0 0))
    (uuid 83d46a74-987a-4cc8-a9fb-ff29ef3d293a)
  )
  (wire (pts (xy 81.28 68.58) (xy 81.28 63.5))
    (stroke (width 0) (type default) (color 0 0 0 0))
    (uuid 863ffeb9-118e-4c88-9875-1fcf5b01d256)
  )
  (wire (pts (xy 102.87 100.33) (xy 102.87 106.68))
    (stroke (width 0) (type default) (color 0 0 0 0))
    (uuid 866d3d28-6b4b-4f71-b4f1-a2fcab59c05b)
  )
  (wire (pts (xy 111.76 120.65) (xy 125.73 120.65))
    (stroke (width 0) (type default) (color 0 0 0 0))
    (uuid 89673b29-7503-43fe-84d5-a51958ffccda)
  )
  (wire (pts (xy 116.84 106.68) (xy 138.43 106.68))
    (stroke (width 0) (type default) (color 0 0 0 0))
    (uuid 8bce5252-f8f3-4e2f-afc7-22411244e324)
  )
  (wire (pts (xy 144.78 57.15) (xy 144.78 58.42))
    (stroke (width 0) (type default) (color 0 0 0 0))
    (uuid 9374ebbf-c83c-499b-9188-0e9c143d1b70)
  )
  (wire (pts (xy 152.4 39.37) (xy 153.67 39.37))
    (stroke (width 0) (type default) (color 0 0 0 0))
    (uuid 94c8ceed-f098-4eda-acaa-9c7678a0e2b3)
  )
  (wire (pts (xy 160.02 52.07) (xy 152.4 52.07))
    (stroke (width 0) (type default) (color 0 0 0 0))
    (uuid 953b0903-291c-4b26-965b-b94b357c5839)
  )
  (wire (pts (xy 62.23 68.58) (xy 81.28 68.58))
    (stroke (width 0) (type default) (color 0 0 0 0))
    (uuid a4f05b7b-a205-4a51-bf10-5e15ffa57c5c)
  )
  (wire (pts (xy 90.17 87.63) (xy 91.44 87.63))
    (stroke (width 0) (type default) (color 0 0 0 0))
    (uuid a4f917c3-55e9-432b-a556-615ce46793d8)
  )
  (wire (pts (xy 116.84 92.71) (xy 107.95 92.71))
    (stroke (width 0) (type default) (color 0 0 0 0))
    (uuid aafd2bc0-5c6e-4351-934b-41190f6068c2)
  )
  (wire (pts (xy 143.51 99.06) (xy 153.67 99.06))
    (stroke (width 0) (type default) (color 0 0 0 0))
    (uuid b28a90d7-48c2-4f2d-ab62-124871ce62e7)
  )
  (wire (pts (xy 102.87 106.68) (xy 107.95 106.68))
    (stroke (width 0) (type default) (color 0 0 0 0))
    (uuid b407e874-9373-482d-95ba-9c7c6280b727)
  )
  (wire (pts (xy 82.55 80.01) (xy 81.28 80.01))
    (stroke (width 0) (type default) (color 0 0 0 0))
    (uuid b79fb462-50ad-4be5-8fb1-66de4b5fa30a)
  )
  (wire (pts (xy 153.67 120.65) (xy 153.67 99.06))
    (stroke (width 0) (type default) (color 0 0 0 0))
    (uuid b99a210c-6465-4de3-89e9-0e242a93c687)
  )
  (wire (pts (xy 138.43 106.68) (xy 144.78 106.68))
    (stroke (width 0) (type default) (color 0 0 0 0))
    (uuid bbd58826-fe93-4a95-a079-fe994e149c1a)
  )
  (wire (pts (xy 163.83 85.09) (xy 149.86 85.09))
    (stroke (width 0) (type default) (color 0 0 0 0))
    (uuid cdab0db4-9d1f-410f-b37e-e80501f0e353)
  )
  (wire (pts (xy 130.81 63.5) (xy 138.43 63.5))
    (stroke (width 0) (type default) (color 0 0 0 0))
    (uuid d002a115-e7a4-46b2-bce0-39eae7bc103a)
  )
  (wire (pts (xy 74.93 87.63) (xy 62.23 87.63))
    (stroke (width 0) (type default) (color 0 0 0 0))
    (uuid d2eab55a-6373-473f-a727-e382d6213a59)
  )
  (wire (pts (xy 138.43 109.22) (xy 138.43 106.68))
    (stroke (width 0) (type default) (color 0 0 0 0))
    (uuid d3357805-f162-4706-aab0-701cc3ea8e9f)
  )
  (wire (pts (xy 144.78 106.68) (xy 149.86 106.68))
    (stroke (width 0) (type default) (color 0 0 0 0))
    (uuid d5512b72-0037-4e0c-8b0f-ce0648b3727d)
  )
  (wire (pts (xy 107.95 106.68) (xy 116.84 106.68))
    (stroke (width 0) (type default) (color 0 0 0 0))
    (uuid d5d05260-c377-4276-a152-c4f33ca38953)
  )
  (wire (pts (xy 82.55 82.55) (xy 82.55 80.01))
    (stroke (width 0) (type default) (color 0 0 0 0))
    (uuid d9b72c34-b745-4ef5-8482-8c9b8affa2f8)
  )
  (wire (pts (xy 146.05 120.65) (xy 153.67 120.65))
    (stroke (width 0) (type default) (color 0 0 0 0))
    (uuid db44b5cd-37c5-4fc4-aab7-3ae8900ef95a)
  )
  (wire (pts (xy 149.86 85.09) (xy 149.86 106.68))
    (stroke (width 0) (type default) (color 0 0 0 0))
    (uuid e15f03e8-d4a3-4221-b26e-e9193d491963)
  )
  (wire (pts (xy 107.95 82.55) (xy 127 82.55))
    (stroke (width 0) (type default) (color 0 0 0 0))
    (uuid e2be5cc5-adae-4ff1-8226-9b7555b62ab7)
  )
  (wire (pts (xy 163.83 92.71) (xy 142.24 92.71))
    (stroke (width 0) (type default) (color 0 0 0 0))
    (uuid ee561917-6067-480f-a64b-cf9afbeff1ee)
  )
  (wire (pts (xy 138.43 91.44) (xy 138.43 63.5))
    (stroke (width 0) (type default) (color 0 0 0 0))
    (uuid f1b5b912-ffa1-4bf4-9ef5-731bf24dc7ce)
  )
  (wire (pts (xy 91.44 87.63) (xy 91.44 106.68))
    (stroke (width 0) (type default) (color 0 0 0 0))
    (uuid f1bcaf74-832f-4bac-b706-33f07805a537)
  )

  (hierarchical_label "S4_UART_OUT" (shape input) (at 160.02 52.07 0)
    (effects (font (size 1.27 1.27)) (justify left))
    (uuid 0dda6527-0bcb-420a-b53d-76ef3b10e2da)
  )
  (hierarchical_label "3V3" (shape input) (at 144.78 35.56 90)
    (effects (font (size 1.27 1.27)) (justify left))
    (uuid 57326d48-5e8e-47f1-8fb1-9988f205d531)
  )
  (hierarchical_label "S4_UART_IN" (shape input) (at 111.76 120.65 180)
    (effects (font (size 1.27 1.27)) (justify right))
    (uuid 5964cc99-e4a4-4ee4-ba03-2c53c66601b0)
  )
  (hierarchical_label "5Vp" (shape input) (at 152.4 63.5 180)
    (effects (font (size 1.27 1.27)) (justify right))
    (uuid 7352f12b-3a7f-4538-ad6f-1c5087c52293)
  )
  (hierarchical_label "S4_AN_OUT" (shape input) (at 72.39 80.01 180)
    (effects (font (size 1.27 1.27)) (justify right))
    (uuid 785e2617-40eb-4fe2-b861-6bb7833408c3)
  )
  (hierarchical_label "5V" (shape input) (at 77.47 63.5 180)
    (effects (font (size 1.27 1.27)) (justify right))
    (uuid b818eebd-54e1-49c2-aa1d-4296f6da8511)
  )
  (hierarchical_label "GND" (shape input) (at 77.47 106.68 180)
    (effects (font (size 1.27 1.27)) (justify right))
    (uuid dedde30a-b192-4790-b566-07f5cca2d4ac)
  )

  (symbol (lib_id "Device:R") (at 107.95 88.9 0) (unit 1)
    (in_bom yes) (on_board yes)
    (uuid 00000000-0000-0000-0000-00006253dd1f)
    (property "Reference" "R93" (id 0) (at 109.728 87.7316 0)
      (effects (font (size 1.27 1.27)) (justify left))
    )
    (property "Value" "4K7" (id 1) (at 109.728 90.043 0)
      (effects (font (size 1.27 1.27)) (justify left))
    )
    (property "Footprint" "Resistor_SMD:R_0603_1608Metric_Pad0.98x0.95mm_HandSolder" (id 2) (at 106.172 88.9 90)
      (effects (font (size 1.27 1.27)) hide)
    )
    (property "Datasheet" "~" (id 3) (at 107.95 88.9 0)
      (effects (font (size 1.27 1.27)) hide)
    )
    (pin "1" (uuid 8213daf3-4289-4949-90e6-a2f26ac86bc8))
    (pin "2" (uuid 7f7905a0-7355-4b55-b82c-462657e5a29c))
  )

  (symbol (lib_id "Device:C") (at 107.95 96.52 0) (unit 1)
    (in_bom yes) (on_board yes)
    (uuid 00000000-0000-0000-0000-00006253dd26)
    (property "Reference" "C130" (id 0) (at 110.871 95.3516 0)
      (effects (font (size 1.27 1.27)) (justify left))
    )
    (property "Value" "10p" (id 1) (at 110.871 97.663 0)
      (effects (font (size 1.27 1.27)) (justify left))
    )
    (property "Footprint" "Capacitor_SMD:C_0603_1608Metric" (id 2) (at 108.9152 100.33 0)
      (effects (font (size 1.27 1.27)) hide)
    )
    (property "Datasheet" "~" (id 3) (at 107.95 96.52 0)
      (effects (font (size 1.27 1.27)) hide)
    )
    (pin "1" (uuid 017ea86e-76a8-4690-bdd8-1a91113cb9ab))
    (pin "2" (uuid 0dcf579c-7af8-4203-ba22-ab6751fefb67))
  )

  (symbol (lib_id "Device:R") (at 77.47 80.01 90) (unit 1)
    (in_bom yes) (on_board yes)
    (uuid 00000000-0000-0000-0000-00006253dd4a)
    (property "Reference" "R90" (id 0) (at 77.47 74.7522 90))
    (property "Value" "1K" (id 1) (at 77.47 77.0636 90))
    (property "Footprint" "Resistor_SMD:R_0603_1608Metric_Pad0.98x0.95mm_HandSolder" (id 2) (at 77.47 81.788 90)
      (effects (font (size 1.27 1.27)) hide)
    )
    (property "Datasheet" "~" (id 3) (at 77.47 80.01 0)
      (effects (font (size 1.27 1.27)) hide)
    )
    (pin "1" (uuid 49e5d94c-493f-443a-a538-83b2c75f16ed))
    (pin "2" (uuid f2559531-0def-4cf5-b3d2-23aebde00d75))
  )

  (symbol (lib_id "Device:C") (at 91.44 83.82 0) (unit 1)
    (in_bom yes) (on_board yes)
    (uuid 00000000-0000-0000-0000-00006253dd57)
    (property "Reference" "C129" (id 0) (at 94.361 82.6516 0)
      (effects (font (size 1.27 1.27)) (justify left))
    )
    (property "Value" "330p" (id 1) (at 94.361 84.963 0)
      (effects (font (size 1.27 1.27)) (justify left))
    )
    (property "Footprint" "Capacitor_SMD:C_0603_1608Metric" (id 2) (at 92.4052 87.63 0)
      (effects (font (size 1.27 1.27)) hide)
    )
    (property "Datasheet" "~" (id 3) (at 91.44 83.82 0)
      (effects (font (size 1.27 1.27)) hide)
    )
    (pin "1" (uuid 1a822374-eb30-4023-95e9-192eada62fdf))
    (pin "2" (uuid 8966fed6-e5d0-4b26-ae21-84780a0f28f8))
  )

  (symbol (lib_id "Device:R") (at 86.36 80.01 90) (unit 1)
    (in_bom yes) (on_board yes)
    (uuid 00000000-0000-0000-0000-00006253dd61)
    (property "Reference" "R91" (id 0) (at 86.36 74.7522 90))
    (property "Value" "1K" (id 1) (at 86.36 77.0636 90))
    (property "Footprint" "Resistor_SMD:R_0603_1608Metric_Pad0.98x0.95mm_HandSolder" (id 2) (at 86.36 81.788 90)
      (effects (font (size 1.27 1.27)) hide)
    )
    (property "Datasheet" "~" (id 3) (at 86.36 80.01 0)
      (effects (font (size 1.27 1.27)) hide)
    )
    (pin "1" (uuid edb8d953-be3e-42d3-b226-08913e8c9e4c))
    (pin "2" (uuid 009f70fb-0d50-4116-bb2f-495de543c74f))
  )

  (symbol (lib_id "Device:R") (at 91.44 76.2 0) (unit 1)
    (in_bom yes) (on_board yes)
    (uuid 00000000-0000-0000-0000-00006253dd67)
    (property "Reference" "R92" (id 0) (at 93.218 75.0316 0)
      (effects (font (size 1.27 1.27)) (justify left))
    )
    (property "Value" "10K" (id 1) (at 93.218 77.343 0)
      (effects (font (size 1.27 1.27)) (justify left))
    )
    (property "Footprint" "Resistor_SMD:R_0603_1608Metric_Pad0.98x0.95mm_HandSolder" (id 2) (at 89.662 76.2 90)
      (effects (font (size 1.27 1.27)) hide)
    )
    (property "Datasheet" "~" (id 3) (at 91.44 76.2 0)
      (effects (font (size 1.27 1.27)) hide)
    )
    (pin "1" (uuid e51e2700-9512-487d-a3ee-d8264b3d3f47))
    (pin "2" (uuid 99a79a2d-f412-4960-9725-d7d104cb3f30))
  )

  (symbol (lib_id "Device:R") (at 142.24 120.65 270) (unit 1)
    (in_bom yes) (on_board yes)
    (uuid 00000000-0000-0000-0000-00006253dd6d)
    (property "Reference" "R95" (id 0) (at 142.24 115.3922 90))
    (property "Value" "470R" (id 1) (at 142.24 123.19 90))
    (property "Footprint" "Resistor_SMD:R_0603_1608Metric_Pad0.98x0.95mm_HandSolder" (id 2) (at 142.24 118.872 90)
      (effects (font (size 1.27 1.27)) hide)
    )
    (property "Datasheet" "~" (id 3) (at 142.24 120.65 0)
      (effects (font (size 1.27 1.27)) hide)
    )
    (pin "1" (uuid 8f1ecc16-189e-41d8-9fce-e26352ae65d3))
    (pin "2" (uuid 4a3d3c94-1939-4eef-88b2-ef1adffd406b))
  )

  (symbol (lib_id "Connector:6P6C") (at 173.99 85.09 180) (unit 1)
    (in_bom yes) (on_board yes)
    (uuid 00000000-0000-0000-0000-00006253dd75)
    (property "Reference" "J14" (id 0) (at 182.372 85.1916 0)
      (effects (font (size 1.27 1.27)) (justify right))
    )
    (property "Value" "SENSOR_4" (id 1) (at 182.372 87.503 0)
      (effects (font (size 1.27 1.27)) (justify right))
    )
    (property "Footprint" "mylib:RJ12_DS1133-S60BP" (id 2) (at 173.99 85.725 90)
      (effects (font (size 1.27 1.27)) hide)
    )
    (property "Datasheet" "~" (id 3) (at 173.99 85.725 90)
      (effects (font (size 1.27 1.27)) hide)
    )
    (pin "1" (uuid 9d3d18fb-95fa-4c82-a0f9-a236bbe3c5d7))
    (pin "2" (uuid 8af8d86c-5a00-428e-a408-90ba240ead93))
    (pin "3" (uuid a5316611-9f79-44ca-ba86-8e94cab23688))
    (pin "4" (uuid 16d667ca-c5a4-40da-a3d1-9fbc8a5bc035))
    (pin "5" (uuid 3e11878b-77ae-4796-bb24-5bf21ff6b2ef))
    (pin "6" (uuid 540da96a-56fa-4891-b7e3-5fc735359d91))
  )

  (symbol (lib_id "74xGxx:SN74LVC1G14DBV") (at 144.78 52.07 0) (unit 1)
    (in_bom yes) (on_board yes)
    (uuid 00000000-0000-0000-0000-00006253dd7b)
    (property "Reference" "U40" (id 0) (at 138.5824 50.9016 0)
      (effects (font (size 1.27 1.27)) (justify right))
    )
    (property "Value" "74HC2G14" (id 1) (at 138.5824 53.213 0)
      (effects (font (size 1.27 1.27)) (justify right))
    )
    (property "Footprint" "Package_TO_SOT_SMD:SOT-353_SC-70-5" (id 2) (at 144.78 58.42 0)
      (effects (font (size 1.27 1.27)) hide)
    )
    (property "Datasheet" "http://www.ti.com/lit/ds/symlink/sn74lvc1g14.pdf" (id 3) (at 144.78 52.07 0)
      (effects (font (size 1.27 1.27)) hide)
    )
    (pin "1" (uuid c94acb04-e8fd-403b-86ef-3741d07c2163))
    (pin "2" (uuid d80f7163-3a06-473e-b298-e459ba4e98d9))
    (pin "3" (uuid f1c03248-111e-442e-b9a4-b053975ea526))
    (pin "4" (uuid 9136b442-53b4-4ad9-bf0d-29ab9db0a46d))
    (pin "5" (uuid 4794afdd-7e16-4daf-aa25-600f3ddab407))
  )

  (symbol (lib_id "Device:C") (at 148.59 39.37 270) (unit 1)
    (in_bom yes) (on_board yes)
    (uuid 00000000-0000-0000-0000-00006253dd89)
    (property "Reference" "C132" (id 0) (at 149.7584 42.291 0)
      (effects (font (size 1.27 1.27)) (justify left))
    )
    (property "Value" "100n" (id 1) (at 147.447 42.291 0)
      (effects (font (size 1.27 1.27)) (justify left))
    )
    (property "Footprint" "Capacitor_SMD:C_0603_1608Metric" (id 2) (at 144.78 40.3352 0)
      (effects (font (size 1.27 1.27)) hide)
    )
    (property "Datasheet" "~" (id 3) (at 148.59 39.37 0)
      (effects (font (size 1.27 1.27)) hide)
    )
    (pin "1" (uuid 551a75c9-269e-4a6e-9c10-110296e48d9f))
    (pin "2" (uuid 5b85f5bf-adb7-4b3d-bb57-cfea2ea81e11))
  )

  (symbol (lib_id "74xGxx:SN74LVC1G14DBV") (at 130.81 120.65 0) (unit 1)
    (in_bom yes) (on_board yes)
    (uuid 00000000-0000-0000-0000-00006253dd96)
    (property "Reference" "U39" (id 0) (at 124.6124 119.4816 0)
      (effects (font (size 1.27 1.27)) (justify right))
    )
    (property "Value" "74HC2G14" (id 1) (at 124.6124 121.793 0)
      (effects (font (size 1.27 1.27)) (justify right))
    )
    (property "Footprint" "Package_TO_SOT_SMD:SOT-353_SC-70-5" (id 2) (at 130.81 127 0)
      (effects (font (size 1.27 1.27)) hide)
    )
    (property "Datasheet" "http://www.ti.com/lit/ds/symlink/sn74lvc1g14.pdf" (id 3) (at 130.81 120.65 0)
      (effects (font (size 1.27 1.27)) hide)
    )
    (pin "1" (uuid 9dae0b22-ca57-4ba2-8a50-9f05b7b66c17))
    (pin "2" (uuid 2875d7a0-b869-40a3-b13a-75e2d3d775ee))
    (pin "3" (uuid 5bf96d68-9d43-4143-8c38-1e5054225dbe))
    (pin "4" (uuid 3b56da9d-cf20-4356-b04f-8d43c968aec7))
    (pin "5" (uuid abf1e233-0d52-47d7-8d6f-84a310d79cf0))
  )

  (symbol (lib_id "Device:C") (at 134.62 109.22 270) (unit 1)
    (in_bom yes) (on_board yes)
    (uuid 00000000-0000-0000-0000-00006253dda5)
    (property "Reference" "C131" (id 0) (at 135.7884 112.141 0)
      (effects (font (size 1.27 1.27)) (justify left))
    )
    (property "Value" "100n" (id 1) (at 133.477 112.141 0)
      (effects (font (size 1.27 1.27)) (justify left))
    )
    (property "Footprint" "Capacitor_SMD:C_0603_1608Metric" (id 2) (at 130.81 110.1852 0)
      (effects (font (size 1.27 1.27)) hide)
    )
    (property "Datasheet" "~" (id 3) (at 134.62 109.22 0)
      (effects (font (size 1.27 1.27)) hide)
    )
    (pin "1" (uuid 59d16569-aa0c-421e-8ce8-9c26771efe9a))
    (pin "2" (uuid 74794a3e-003f-40d4-94ad-aa49deb1627f))
  )

  (symbol (lib_id "Device:R") (at 116.84 100.33 0) (unit 1)
    (in_bom yes) (on_board yes)
    (uuid 00000000-0000-0000-0000-00006253ddc0)
    (property "Reference" "R94" (id 0) (at 118.618 99.1616 0)
      (effects (font (size 1.27 1.27)) (justify left))
    )
    (property "Value" "100K" (id 1) (at 118.618 101.473 0)
      (effects (font (size 1.27 1.27)) (justify left))
    )
    (property "Footprint" "Resistor_SMD:R_0603_1608Metric_Pad0.98x0.95mm_HandSolder" (id 2) (at 115.062 100.33 90)
      (effects (font (size 1.27 1.27)) hide)
    )
    (property "Datasheet" "~" (id 3) (at 116.84 100.33 0)
      (effects (font (size 1.27 1.27)) hide)
    )
    (pin "1" (uuid e1324fd1-6db5-4b3c-9ad6-337e3f1af9d8))
    (pin "2" (uuid 934630eb-9496-408a-b7f2-7241729be63a))
  )

  (symbol (lib_id "Device:D_Dual_Series_AKC") (at 138.43 99.06 90) (unit 1)
    (in_bom yes) (on_board yes) (fields_autoplaced)
    (uuid 1121c169-93e1-49ab-b08c-aad8e6ab579d)
    (property "Reference" "D21" (id 0) (at 135.89 95.9484 90)
      (effects (font (size 1.27 1.27)) (justify left))
    )
    (property "Value" "D_Dual_Series_AKC" (id 1) (at 135.89 98.4884 90)
      (effects (font (size 1.27 1.27)) (justify left))
    )
    (property "Footprint" "Package_TO_SOT_SMD:SOT-23" (id 2) (at 138.43 99.06 0)
      (effects (font (size 1.27 1.27)) hide)
    )
    (property "Datasheet" "~" (id 3) (at 138.43 99.06 0)
      (effects (font (size 1.27 1.27)) hide)
    )
    (pin "1" (uuid 3f811fb8-f914-44cf-9e92-370aec589b07))
    (pin "2" (uuid c40b14bb-1dfc-448e-8fea-b04a5c389ed0))
    (pin "3" (uuid d8e31d94-01a8-44f1-8200-4e2fd461f4c5))
  )

  (symbol (lib_id "Device:D_Dual_Series_AKC") (at 102.87 92.71 90) (unit 1)
    (in_bom yes) (on_board yes) (fields_autoplaced)
    (uuid 698bfa6b-25b2-4b84-b184-f323fa4a01e0)
    (property "Reference" "D20" (id 0) (at 100.33 89.5984 90)
      (effects (font (size 1.27 1.27)) (justify left))
    )
    (property "Value" "D_Dual_Series_AKC" (id 1) (at 100.33 92.1384 90)
      (effects (font (size 1.27 1.27)) (justify left))
    )
    (property "Footprint" "Package_TO_SOT_SMD:SOT-23" (id 2) (at 102.87 92.71 0)
      (effects (font (size 1.27 1.27)) hide)
    )
    (property "Datasheet" "~" (id 3) (at 102.87 92.71 0)
      (effects (font (size 1.27 1.27)) hide)
    )
    (pin "1" (uuid 79d1c1b6-f91c-4b86-9fcb-1313c36f2df6))
    (pin "2" (uuid 4f4d591f-bccd-4d8c-9582-6ca2f6732688))
    (pin "3" (uuid d7162c4f-bb62-4354-a4ef-1e1ea2a4df9d))
  )

  (symbol (lib_id "Device:D_Dual_Series_AKC") (at 82.55 87.63 180) (unit 1)
    (in_bom yes) (on_board yes) (fields_autoplaced)
    (uuid d62d5752-692e-43f3-8714-f83788269e6c)
    (property "Reference" "D19" (id 0) (at 80.7085 92.075 0))
    (property "Value" "D_Dual_Series_AKC" (id 1) (at 80.7085 94.615 0))
    (property "Footprint" "Package_TO_SOT_SMD:SOT-23" (id 2) (at 82.55 87.63 0)
      (effects (font (size 1.27 1.27)) hide)
    )
    (property "Datasheet" "~" (id 3) (at 82.55 87.63 0)
      (effects (font (size 1.27 1.27)) hide)
    )
    (pin "1" (uuid 7f12cbea-6a9a-46fe-a3ec-2b65940fa7d4))
    (pin "2" (uuid 4bcfffbd-a1eb-45a3-897e-186698e02ebb))
    (pin "3" (uuid c72ce567-1be6-4d0d-b8f9-3ccbe4ee43ec))
  )
)
